"","comid","contact_with_health_professionals_about_mh","contact_with_medical_doctor","datagroup","diabetes","exposure_to_secondhand_smoke_at_home","exposure_to_secondhand_smoke_in_vehicles_public_places","fruit_and_vegetable_consumption","geogname","heavy_drinking_5_or_more_drinks_on_one_occasion","high_blood_pressure","household_food_insecurity","life_satisfaction","overweight_or_obese","participation_and_activity_limitation","perceived_health","perceived_mental_health","physical_activity_during_leisure","respiratory_disease","sense_of_belonging","smoker_daily_or_occasional","year"
"1","DHA1",NA,"76.7","Percentage",10.2,12.7,11.6,34.8,"South Shore Health",16.1,19.8,91.9,90.9,65.1,42.9,49.4,67.5,48,9.8,72.2,26.8,"2009-2010"
"2","DHA2",NA,"78.3","Percentage",9.3,16.4,18.8,34.5,"South West Health",18.4,25.5,86.6,90.1,63.5,36.9,46.7,64.9,47.2,13,84.8,30.1,"2009-2010"
"3","DHA3",NA,"78.4","Percentage",7.2,14.6,10.2,43.7,"Annapolis Valley Health",16.8,21,89.9,92.2,54.1,33.5,54.3,73.3,51.7,16.3,76.1,19.5,"2009-2010"
"4","DHA4",NA,"80.8","Percentage",7.9,11.8,14.4,33.4,"Colchester East Hants Health Authority",19.7,17.4,92.8,93,61,32.1,59.5,74.3,48.9,8.9,76.1,21.3,"2009-2010"
"5","pro9012",NA,"81","Percentage",8,13.7,14.6,36.3,"Nova Scotia",20.6,21,90.6,91.9,57.1,35.8,59,73.2,52.8,12.2,76.3,23,"2009-2010"
"6","chb81",NA,"x","Percentage",13,33,35,48,"Central Inverness",NA,30,75,90,66,NA,49,74,50,19,79,28,"2006"
"7","DHA5",NA,"73.7","Percentage",9.8,16.1,18.4,34.7,"Cumberland Health Authority",22,20.3,89,92.9,59,43.2,44.4,69.6,54.5,14.1,70.7,22.7,"2009-2010"
"8","chb85",9,"23","Percentage",11,23,23,49,"East Cape Breton County",NA,23,77,93,67,NA,60,77,50,13,77,26,"2006"
"9","chb97",21.6,"x","Percentage",7.5,NA,NA,35.4,"Chebucto West",NA,18.5,NA,90.8,65.1,NA,61.8,73.2,58,15.3,65.1,19.6,"2009"
"10","chb86",NA,"x","Percentage",9,18,14,58,"Northside The Lakes",NA,26,86,92,62,NA,51,69,56,17,81,18,"2006"
"11","chb83",NA,"x","Percentage",10,18,26,53,"Victoria County",NA,22,79,94,66,NA,61,77,53,13,86,22,"2006"
"12","DHA8",NA,"82.4","Percentage",12,16.3,13.1,35,"Cape Breton District Health Authority",20.8,31.6,90.3,91.4,58.1,40.8,59.5,75.1,49.4,12.9,81.6,26,"2009-2010"
"13","DHA9",NA,"83.2","Percentage",6.4,12.2,15.6,37.6,"Capital Health",22.7,17.1,91,93.3,54.9,34.7,64.2,76.8,56.4,12.3,73.4,22.7,"2009-2010"
"14","pro9012",12.8,"80.7","Percentage",7.2,14.9,17,35.7,"Nova Scotia",21.2,19.8,91.4,92.1,56.5,39.2,56.4,72.5,48.2,13.6,77.7,23.9,"2007-2008"
"15","DHA1",10.9,"84.8","Percentage",7.4,22.3,18.3,35.2,"South Shore Health",12.2,31.7,91.3,93.1,61.7,45.6,43.3,66.2,45.2,8.9,76.7,25.5,"2007-2008"
"16","DHA6",NA,"77.9","Percentage",7.2,13.8,15.6,30.4,"Pictou County Health Authority",15.5,25.1,86.8,87.9,51.8,36.2,58.5,65.3,54.4,8.9,77.8,18.7,"2009-2010"
"17","DHA7",NA,"78.7","Percentage",8.3,17.7,13.4,30.7,"Guysborough Antigonish Strait Health Authority",20.1,26.3,93.1,85.8,58.1,28.3,56.3,62.9,49.1,12.2,82.7,17.7,"2009-2010"
"18","DHA4",17.4,"83.6","Percentage",7.6,13.8,13.9,31.6,"Colchester East Hants Health Authority",21.9,22.3,89.5,92.8,57.9,47.5,55.3,67.1,46.4,13.2,75.3,21.2,"2007-2008"
"19","DHA5",14.5,"70.6","Percentage",NA,20.4,13.9,41.9,"Cumberland Health Authority",23.8,26.2,93.5,91.7,61.7,40.5,49.9,69.2,43.3,9.2,79,23,"2007-2008"
"20","DHA6",16.4,"75.3","Percentage",7.9,17.3,17.8,29.9,"Pictou County Health Authority",22.4,18.3,92.8,91,53.4,38.7,55.2,69.4,56.6,14.8,84,33.5,"2007-2008"
"21","DHA7",7.3,"78.4","Percentage",8.7,14.4,10.5,38.6,"Guysborough Antigonish Strait Health Authority",15.7,22.6,92.8,92.5,55.9,38.5,56.8,73.5,47.7,12.8,81.8,20.6,"2007-2008"
"22","DHA1",NA,"83.6","Percentage",7.4,24.1,NA,25,"South Shore Health",NA,19,NA,88,58.7,NA,51.4,62.4,42.6,11.2,NA,28.5,"2003"
"23","DHA8",13.6,"81.4","Percentage",9.3,20.8,15.6,30.1,"Cape Breton District Health Authority",25.2,23.5,91.3,92.6,57,42.8,53.9,72,45.4,12.1,80.5,26.3,"2007-2008"
"24","DHA9",12.9,"81.7","Percentage",6.5,11.8,17.8,37.5,"Capital Health",22.2,15.8,91.5,91.8,54.9,35.3,60.7,76.2,48.3,14.7,75.4,22.5,"2007-2008"
"25","DHA2",10.1,"74.1","Percentage",5.3,19.3,22.4,29,"South West Health",22.4,19.9,90.5,92.7,59.3,38.9,51.1,66.5,51.3,15,81.5,27.3,"2007-2008"
"26","DHA3",11.7,"81.8","Percentage",7.4,12,18.4,44.9,"Annapolis Valley Health",16.6,20.2,91.2,91.1,56.5,41.1,55.9,71.9,51.1,13.8,78.3,24,"2007-2008"
"27","chb84",NA,"x","Percentage",9,29,34,47,"Central Cape Breton County",NA,24,79,91,52,NA,60,74,47,16,76,22,"2006"
"28","CHB31",NA,"x","Percentage",6.9,NA,NA,39.9,"Annapolis",NA,21.9,NA,94.4,61.8,NA,50,67.9,90.8,16,79.6,NA,"2009"
"29","CHB32",NA,"x","Percentage",6.8,NA,NA,38.1,"Central Kings",NA,18.4,NA,92.1,63.5,NA,51.6,72.8,93.7,16.4,72.5,NA,"2009"
"30","CHB34",NA,"x","Percentage",6.9,NA,NA,44.2,"Eastern Kings",NA,18.9,NA,95.6,52.7,NA,59.1,74.8,93.1,11.5,75.7,NA,"2009"
"31","CHB33",NA,"x","Percentage",7.6,NA,NA,38.6,"Kingston-Greenwood",NA,20.3,NA,95.7,61,NA,55,74.6,91.2,12.7,74.7,NA,"2009"
"32","CHB35",NA,"x","Percentage",6.8,NA,NA,37.3,"Western Kings",NA,20.5,NA,93.2,62.4,NA,47.1,74.7,90.4,11.3,69.4,NA,"2009"
"33","chb71",12.3,"82.5","Percentage",7.2,20.9,NA,45.7,"Antigonish Town and County",NA,19.8,NA,NA,62.7,NA,NA,78.2,56.2,14.9,NA,16.1,"2010"
"34","chb72",11.9,"78","Percentage",8.6,24.4,NA,35.4,"Guysborough County",NA,28.4,NA,NA,73.9,NA,NA,72.9,53.7,20.7,NA,22,"2010"
"35","pro9048",11.7,"74.9","Percentage",4.6,11.9,18.4,42.8,"Alberta",18.6,14.6,94.1,92.5,49.4,32.7,62.5,74.8,54.3,10.1,61.7,21.8,"2007-2008"
"36","pro9062",11.5,"46.5","Percentage",1.6,19,18,23.6,"Nunavut",22.6,6.3,59.3,92.7,52.5,25.4,52.6,65,44.8,3.9,82,58.2,"2007-2008"
"37","chb73",10.7,"75.8","Percentage",11.6,16.2,NA,32.6,"Strait Richmond",NA,25.2,NA,NA,70.7,NA,NA,76.8,55.5,14.6,NA,17.7,"2010"
"38","chb82",5,"x","Percentage",11,22,21,56,"North Inverness",NA,24,82,95,63,NA,61,76,57,18,85,20,"2006"
"39","pro9012",7.9,"80.6","Percentage",5.2,33.7,NA,32.6,"Nova Scotia",NA,16.3,NA,NA,55.8,NA,59.5,NA,44.9,12.4,NA,28.2,"2001"
"40","DHA1",8,"85.4","Percentage",6.1,37.8,NA,30.3,"South Shore Health",NA,19.9,NA,NA,61.9,NA,54,NA,35.5,16.2,NA,33,"2001"
"41","DHA2",5.3,"75.3","Percentage",7.1,32.3,NA,30.5,"South West Health",NA,17.8,NA,NA,61.6,NA,50.3,NA,39.3,10,NA,29.3,"2001"
"42","DHA3",7.3,"79.8","Percentage",4.8,31.8,NA,33.3,"Annapolis Valley Health",NA,12.9,NA,NA,53.8,NA,58.8,NA,48,11.8,NA,29.2,"2001"
"43","DHA4",10.5,"82.4","Percentage",5.9,33.6,NA,29.2,"Colchester East Hants Health Authority",NA,17.9,NA,NA,57.7,NA,57.6,NA,43.7,11.6,NA,27.5,"2001"
"44","DHA5",7.2,"81.5","Percentage",9.3,39.7,NA,35,"Cumberland Health Authority",NA,21,NA,NA,63.9,NA,47.9,NA,43.8,15.4,NA,34.4,"2001"
"45","DHA6",6.4,"81.9","Percentage",7,40.5,NA,35.6,"Pictou County Health Authority",NA,16.8,NA,NA,57.3,NA,58.3,NA,52.9,10.2,NA,26.8,"2001"
"46","DHA7",4.7,"80.6","Percentage",NA,24.2,NA,31,"Guysborough Antigonish Strait Health Authority",NA,15.6,NA,NA,53.6,NA,58.4,NA,41,9.6,NA,20.3,"2001"
"47","DHA8",7.6,"81.3","Percentage",6,36.5,NA,36.5,"Cape Breton District Health Authority",NA,22,NA,NA,59.1,NA,56.9,NA,43.6,13.3,NA,29.2,"2001"
"48","DHA9",8.8,"80.1","Percentage",3.5,32.9,NA,32.2,"Capital Health",NA,13.6,NA,NA,52.6,NA,64.8,NA,47.2,12.5,NA,27.6,"2001"
"49","pro9012",NA,"84.3","Percentage",5.5,22.7,NA,33.3,"Nova Scotia",NA,18.3,NA,92.8,55.7,NA,58.6,74.4,49,12.8,NA,23.1,"2003"
"50","DHA2",NA,"79.6","Percentage",5.6,26.2,NA,27.4,"South West Health",NA,18.5,NA,93.1,56.5,NA,49.5,67.2,44.7,14.2,NA,24.8,"2003"
"51","pro9024",NA,"70.4","Percentage",6,19.3,15.1,52.7,"Québec",17.3,16.1,94,92.6,45.2,23.6,59.3,77.2,47.4,9.9,58,24.1,"2007-2008"
"52","DHA3",NA,"82.4","Percentage",5.4,23.9,NA,32.9,"Annapolis Valley Health",NA,16.4,NA,91.7,53.1,NA,58.1,73.1,50.4,14.9,NA,27.8,"2003"
"53","DHA4",NA,"82.5","Percentage",4.7,23.6,NA,33.2,"Colchester East Hants Health Authority",NA,22.7,NA,92.6,59.6,NA,54.5,68.4,49,13.2,NA,26,"2003"
"54","DHA5",NA,"82.1","Percentage",8.2,32.6,NA,32.8,"Cumberland Health Authority",NA,28.3,NA,94.3,58.5,NA,47.7,58.5,46.9,9.4,NA,33.1,"2003"
"55","DHA6",NA,"86.2","Percentage",7.3,23.9,NA,35.5,"Pictou County Health Authority",NA,20.4,NA,93.1,57.8,NA,56.5,76,42.7,11.3,NA,29.9,"2003"
"56","DHA7",NA,"82.5","Percentage",5.1,19.9,NA,32.9,"Guysborough Antigonish Strait Health Authority",NA,17.8,NA,95,54.7,NA,55.1,77.7,46.5,13.2,NA,18.8,"2003"
"57","DHA8",NA,"84.3","Percentage",7.7,30.8,NA,32.8,"Cape Breton District Health Authority",NA,22.7,NA,92,56.9,NA,56.1,75,48.5,12.9,NA,27.7,"2003"
"58","DHA9",NA,"86.1","Percentage",4.3,18.4,NA,35.6,"Capital Health",NA,15.3,NA,93.6,54.2,NA,64.4,79.3,51.8,12.6,NA,18.1,"2003"
"59","pro9012",NA,"83.9","Percentage",6.5,17.8,NA,NA,"Nova Scotia",NA,18.1,NA,91.9,54.4,NA,57.9,72.8,49.2,13.4,NA,22.6,"2005"
"60","DHA1",NA,"85.8","Percentage",6.9,18.3,NA,NA,"South Shore Health",NA,22.1,NA,93.9,61.4,NA,57.4,72.7,45.6,12.7,NA,19.9,"2005"
"61","DHA2",NA,"80.2","Percentage",8.7,21.4,NA,NA,"South West Health",NA,21.6,NA,89.6,60.8,NA,50.2,61.5,44.7,15.5,NA,21.6,"2005"
"62","DHA3",NA,"85.5","Percentage",6.2,19.7,NA,NA,"Annapolis Valley Health",NA,16.3,NA,89.8,54.2,NA,53.4,71.1,51.5,13.7,NA,23.9,"2005"
"63","DHA4",NA,"87.1","Percentage",8,18,NA,NA,"Colchester East Hants Health Authority",NA,17.9,NA,90.3,54.3,NA,54.9,71.4,45,12.3,NA,26.2,"2005"
"64","DHA5",NA,"78.9","Percentage",7.3,20,NA,NA,"Cumberland Health Authority",NA,24.9,NA,95.4,60.3,NA,50.9,68.4,45.9,12,NA,21.9,"2005"
"65","DHA6",NA,"82","Percentage",6.2,17.1,NA,NA,"Pictou County Health Authority",NA,18.2,NA,89.7,57,NA,50.9,68.6,47.3,11.9,NA,22.9,"2005"
"66","DHA7",NA,"84.4","Percentage",7.5,12.8,NA,NA,"Guysborough Antigonish Strait Health Authority",NA,25,NA,95.9,58.1,NA,51.9,71.2,40.2,10.1,NA,22.6,"2005"
"67","DHA8",NA,"85.1","Percentage",9,23.8,NA,NA,"Cape Breton District Health Authority",NA,23.1,NA,91.8,60.8,NA,57.6,74.9,48.8,13.4,NA,24.6,"2005"
"68","DHA9",NA,"83.4","Percentage",5,15.4,NA,NA,"Capital Health",NA,14.3,NA,92.2,49.1,NA,62.9,75.7,52.6,13.9,NA,21.4,"2005"
"69","chb93",19.3,"x","Percentage",7.5,NA,NA,41.9,"Cobequid",NA,16.4,NA,92.8,62.1,NA,65.2,74.7,53.9,13.8,68.1,17.5,"2009"
"70","chb94",19.9,"x","Percentage",7.7,NA,NA,35.2,"Dartmouth",NA,23.1,NA,89.2,60.6,NA,59.3,70.2,53,21.7,65.3,20.9,"2009"
"71","chb91",13.6,"x","Percentage",10.7,NA,NA,38.7,"Eastern Shore Musquodoboit",NA,24.8,NA,92.3,68.4,NA,58.3,73.1,55.5,12.2,70.2,20.4,"2009"
"72","chb96",19.9,"x","Percentage",6.4,NA,NA,39.7,"Halifax",NA,18.1,NA,87.4,52.7,NA,61.8,70.4,59.2,19.9,65.4,19.5,"2009"
"73","chb95",17.9,"x","Percentage",11.3,NA,NA,36.8,"Southeastern",NA,20,NA,90.7,67.8,NA,63.6,73.4,60.9,13.3,68.8,20,"2009"
"74","chb92",16.5,"x","Percentage",8.6,NA,NA,33.9,"West Hants",NA,21.2,NA,90.8,66.6,NA,51.8,66.9,54.6,17.8,70.7,25.6,"2009"
"75","pro9048",NA,"76.8","Percentage",4.9,11.1,15,40.9,"Alberta",18.9,14.7,93.3,91.1,50.1,28.6,61.6,73.7,56.8,10.6,63.8,22.5,"2009-2010"
"76","pro9059",NA,"79","Percentage",5.1,7.6,14.3,43.6,"British Columbia",14.9,14.3,92.8,91.2,41.9,31.9,58.2,71.3,58,8.7,68,18.4,"2007-2008"
"77","pro9059",NA,"79.8","Percentage",5.3,5.6,14.3,44.4,"British Columbia",15.9,14.7,91.8,91.2,42.2,28,59.5,70.9,59.8,9.2,69.2,16.9,"2009-2010"
"78","can",11.2,"76.4","Percentage",5.9,13.1,15.7,43.7,"Canada",17,16.2,92.9,91.7,47.7,30.5,59.3,74.6,50.6,10,64.8,21.6,"2007-2008"
"79","can",NA,"77.5","Percentage",6.1,11.1,14.9,44.1,"Canada",17.5,16.9,92.8,92.1,48.8,28.3,60.2,73.8,52.6,10.2,65.3,20.4,"2009-2010"
"80","pro9046",NA,"74.5","Percentage",5,14.4,13.9,35.8,"Manitoba",19.4,17.3,91.7,92.2,51,36.7,57.4,72.7,53.2,10.8,67.8,23.4,"2007-2008"
"81","pro9046",NA,"78.3","Percentage",5.7,10.8,16.1,36.3,"Manitoba",18.4,16.8,93.8,91.3,55,33.4,58.3,70.5,53.4,12.4,67.8,19.6,"2009-2010"
"82","pro9013",10.5,"77","Percentage",7.8,16.6,15.6,38.6,"New Brunswick",19.6,19.5,91.1,93.3,56.5,33,54.6,70.7,46.5,11,69,23.2,"2007-2008"
"83","pro9013",NA,"78.2","Percentage",7.3,12.7,14.7,38.5,"New Brunswick",20.1,21.4,NA,92.1,59.8,33.5,54.3,68.5,51.1,10.4,72.9,21.9,"2009-2010"
"84","pro9010",NA,"78.8","Percentage",9.1,14.1,15,31,"Newfoundland and Labrador",23.7,20.7,91.7,93.5,59.9,33.6,61.8,77.5,45.2,8.9,80.1,24.8,"2007-2008"
"85","pro9010",NA,"79.3","Percentage",8.1,12.4,13.4,29.7,"Newfoundland and Labrador",24.9,22.8,94.4,91.7,61.3,31.4,60.2,74.7,47.5,10.8,80.2,23.2,"2009-2010"
"86","pro9061",12.2,"68.3","Percentage",4.3,17.3,11.1,25.6,"Northwest Territories",26.8,11.8,87.7,92.7,56.1,25.7,53.6,67.4,48.3,8.1,79,35.5,"2007-2008"
"87","pro9061",NA,"69.9","Percentage",5.1,19.4,16.9,30.2,"Northwest Territories",31.6,12.5,89.8,91.9,53.7,26.4,52.1,65.5,51.4,9.1,78.9,41.6,"2009-2010"
"88","pro9062",NA,"50.3","Percentage",3.2,22.4,NA,25.4,"Nunavut",16.4,10.6,67,89.5,50.5,26.8,45.6,68.6,46.6,4.9,86.3,57.7,"2009-2010"
"89","pro9035",11,"79","Percentage",6.2,10.9,16,41.2,"Ontario",16,16.6,92.2,90.7,48.2,31.7,59.6,74.7,49.7,10.2,66.4,20.3,"2007-2008"
"90","pro9035",NA,"80.1","Percentage",6.9,9.3,15.9,42.6,"Ontario",16.1,17.4,92.4,91.5,48.9,28.5,60.7,74.1,50.8,10.3,67.1,18.9,"2009-2010"
"91","pro9011",8.3,"79.5","Percentage",5.9,14.8,14.1,37.1,"Prince Edward Island",18.3,18.2,89.1,94.3,55.7,33.8,60.4,74.8,47.4,10.7,73.2,21.4,"2007-2008"
"92","pro9011",NA,"80.2","Percentage",7.2,9.6,11,37.2,"Prince Edward Island",19.8,17.9,NA,94.4,53.5,27.7,64.1,75.1,51.4,10.7,74,21.8,"2009-2010"
"93","pro9024",NA,"71.4","Percentage",5.5,16.8,13.6,52.2,"Québec",18.5,17.1,93.8,94.1,47.2,25.6,60.2,76.4,50,9.8,56.9,22.8,"2009-2010"
"94","pro9047",NA,"77.6","Percentage",6,15.5,14.7,39.2,"Saskatchewan",18.8,17.5,94.2,92.8,54.1,34,55.4,72.4,48.2,10.4,71.2,25.4,"2007-2008"
"95","pro9047",NA,"79.8","Percentage",6.6,13.1,13.7,38.9,"Saskatchewan",18.8,17.7,94.2,93,54.8,30.6,58.3,71.3,51.9,10.7,71.7,22,"2009-2010"
"96","pro9060",NA,"77.5","Percentage",3.7,18.8,8.9,38.4,"Yukon Territory",25,13.7,90.8,89.9,47.5,27.3,59.5,73.2,55,10.1,74.8,31.4,"2007-2008"
"97","pro9060",NA,"82.1","Percentage",5,16.5,7.4,49.1,"Yukon Territory",26.8,12.3,89.8,92.1,50.3,29.3,57.3,72.8,57.7,12,77.5,30.6,"2009-2010"
"98","DHA1",12.2,"x","Percentage",9.8,NA,23.6,NA,"South Shore Health",NA,28.3,96,98.7,67.8,NA,57.6,75.2,52.8,11.7,69.6,18.9,"2011-2012"
"99","DHA2",11.1,"x","Percentage",9.2,NA,10,NA,"South West Health",NA,25.8,88.6,99.2,61.7,NA,52.9,69,46.4,14.9,79.4,24.7,"2011-2012"
"100","DHA3",10.1,"x","Percentage",9.7,NA,10.4,NA,"Annapolis Valley  Health",NA,24,90.6,98.7,59.2,NA,55,71.6,56.7,13.6,73,17.4,"2011-2012"
"101","DHA4",9.8,"x","Percentage",9.1,NA,21.7,NA,"Colchester East Hants Authority",NA,24.5,90.8,99.4,67,NA,56.1,70.7,48.3,15.8,71.8,15.4,"2011-2012"
"102","DHA5",16.4,"x","Percentage",11.7,NA,NA,NA,"Cumberland Health Authority",NA,33.8,84.7,99,57.4,NA,44.3,63.2,50.7,17.1,77.7,13.9,"2011-2012"
"103","DHA6",15.9,"x","Percentage",8.9,NA,22.8,NA,"Pictou County Heath Authority",NA,24.6,84.2,99,65.5,NA,51.5,66.7,53.1,14.3,74.7,21.1,"2011-2012"
"104","DHA7",10.4,"x","Percentage",11.5,NA,NA,NA,"Guysborough Antigonish Strait Health Authority",NA,31.9,91.2,99.4,63.1,NA,51.3,63.1,49.2,10.1,84,12.8,"2011-2012"
"105","DHA8",13.7,"x","Percentage",9.8,NA,18.6,NA,"Cape Breton District Health Authority",NA,27.6,90.2,97.3,64.3,NA,62.1,77.6,52.5,12.7,74.4,25.6,"2011-2012"
"106","DHA9",18,"x","Percentage",7.5,NA,17.5,NA,"Capital Health",NA,18.2,89,98.9,58.4,NA,60.5,73.3,56.3,12.2,66.5,22.6,"2011-2012"
"107","can",NA,"x","Percentage",6.3,5.1,16.7,40.5,"Canada",18.2,17.5,NA,92.3,52.3,NA,59.9,72.2,53.8,8.3,65.4,20.1,"2011-2012"
"108","pro9010",NA,"x","Percentage",9.4,4.9,15.4,25.9,"Newfoundland and Labrador",26.8,22.5,NA,92.5,66.2,NA,60.3,73.2,50.3,8.3,77.3,23.2,"2011-2012"
"109","pro9011",NA,"x","Percentage",7.6,8.8,16.7,33.7,"Prince Edward Island",19.9,20.6,NA,93.9,59.4,NA,58.3,71.1,51.6,9.3,74.1,21.5,"2011-2012"
"110","pro9012",NA,"x","Percentage",8.6,5.7,15.7,34,"Nova Scotia",21.3,22.6,89.5,92.9,60.8,NA,57.8,71.8,53.8,9.6,71.2,22.8,"2011-2012"
"111","pro9013",NA,"x","Percentage",8,6.3,16.4,33.9,"New Brunswick",20.7,22.5,NA,93.4,60,NA,54.3,68.4,51.8,9.7,70.8,22.7,"2011-2012"
"112","pro9024",NA,"x","Percentage",6.2,7.6,17,46.8,"Quebec",18.7,17.2,NA,93.8,50.5,NA,59.5,74.9,50.1,8.9,57.2,22.4,"2011-2012"
"113","pro9035",NA,"x","Percentage",6.6,4.5,16.7,38.9,"Ontario",16.9,17.6,NA,91.8,52.6,NA,60.4,72.4,53.8,7.9,67.5,19.2,"2011-2012"
"114","pro9046",NA,"79.8","Percentage",6.5,4.5,18.6,36.7,"Manitoba",21.2,18,NA,90.8,57.3,NA,57.6,68.4,54.4,9.1,67.9,20,"2011-2012"
"115","pro9047",NA,"x","Percentage",6.2,5.4,13.9,35.3,"Saskatchewan",19.8,18.5,NA,92.6,59.5,NA,56.9,67.7,53.1,9.2,73,21.9,"2011-2012"
"116","pro9048",NA,"x","Percentage",5.4,4.9,17.7,39.6,"Alberta",20,15.5,NA,92.6,52.7,NA,62.1,72.9,55,8.3,64.3,21.6,"2011-2012"
"117","pro9059",NA,"x","Percentage",5.4,2.5,15.7,41.3,"British Columbia",16.3,16.4,NA,91,46.6,NA,59.9,68.7,60.4,7.9,68.3,15.1,"2011-2012"
"118","pro9060",NA,"x","Percentage",6.6,3.2,10.9,40.1,"Yukon Territory",23.5,13.9,NA,93.9,53.3,38.3,57.2,68.1,64.1,9.9,75.9,29.3,"2011-2012"
"119","pro9061",NA,"x","Percentage",4.1,6.7,17,33.4,"Northwest Territories",31.5,9.3,NA,90.1,61.3,31.9,51.9,62.8,54.3,6.7,80.2,35.3,"2011-2012"
"120","pro9062",NA,"x","Percentage",3.2,11,20.6,24.2,"Nunavut",24.1,13.6,NA,87.7,56.4,29.8,42.8,57,43.5,4.9,83.5,57,"2011-2012"
