"","comid","geogname","has_someone_to_advice_in_time_of_crisis_all_of_the_time","has_someone_to_advice_in_time_of_crisis_little_of_the_time","has_someone_to_advice_in_time_of_crisis_most_of_the_time","has_someone_to_advice_in_time_of_crisis_none_of_the_time","has_someone_to_advice_in_time_of_crisis_some_of_the_time","has_someone_who_shows_love_and_affection_all_of_the_time","has_someone_who_shows_love_and_affection_little_of_the_time","has_someone_who_shows_love_and_affection_most_of_the_time","has_someone_who_shows_love_and_affection_none_of_the_time","has_someone_who_shows_love_and_affection_some_of_the_time","id","is_there_someone_you_can_count_on_to_listen_all_of_the_time","is_there_someone_you_can_count_on_to_listen_little_of_the_time","is_there_someone_you_can_count_on_to_listen_most_of_the_time","is_there_someone_you_can_count_on_to_listen_none_of_the_time","is_there_someone_you_can_count_on_to_listen_some_of_the_time","selfperceived_life_stress_a_bit","selfperceived_life_stress_extremely","selfperceived_life_stress_not_at_all","selfperceived_life_stress_not_very","selfperceived_life_stress_quite_a_bit","selfrated_work_stress_a_bit_stressful","selfrated_work_stress_extremely_stressful","selfrated_work_stress_not_at_all_stressful","selfrated_work_stress_not_very_stressful","selfrated_work_stress_quite_a_bit_stressful","sense_of_belonging_to_community_somewhat_strong","sense_of_belonging_to_community_somewhat_weak","sense_of_belonging_to_community_very_strong","sense_of_belonging_to_community_very_weak","year"
"1","dha1","South Shore District Health Authority",53.79,NA,28.62,2.16,13.31,76.99,NA,15.54,NA,5.06,2,61.72,NA,26.36,NA,9.19,43.25,5.15,11.57,23.18,16.85,40.18,6.6,7.4,27.07,18.74,42.45,26.11,24.16,7.28,2001
"2","dha2","South West Nova District Health Authority",59.27,1.89,28.08,NA,9.44,79.09,NA,16.01,NA,3.48,3,68.3,NA,23.35,NA,6.11,41.68,3.94,12.5,25.65,16.22,36.54,NA,11.12,30.21,18.14,48.54,18.19,24.94,8.33,2001
"3","dha3","Annapolis Valley District Health Authority",65.18,1.9,21.77,3.05,8.1,79.24,1.26,14.3,1.03,4.17,4,67.07,1.85,23.62,NA,6.41,38.99,3.75,11.28,25.16,20.83,40.32,5.15,12.63,19.54,22.36,44.61,24.96,17.84,12.59,2001
"4","dha4","Colchester East Hants District Health Authority",55.94,3.88,26.01,NA,12.31,81.76,NA,11.56,NA,4.5,5,63.19,3.2,23.45,NA,9.44,44.84,4.15,10.22,22.67,18.13,42.26,4.98,9.36,22.31,21.08,46.17,25.25,18.4,10.18,2001
"5","dha5","Cumberland Health Authority",63.21,NA,19.84,NA,8.22,89.15,NA,6.89,NA,NA,6,74.01,NA,15.8,NA,6.2,38.47,8.21,15.04,20.7,17.57,41.3,NA,19.06,12.73,17.62,36.27,22.74,26.95,14.04,2001
"6","dha6","Pictou County District Health Authority",59.93,2.05,28.03,NA,7.96,79.85,NA,15.13,NA,NA,7,64.76,2.61,25.13,NA,6.45,37.42,NA,13.63,25.98,21.18,46.53,NA,12.85,14.49,23.4,48.49,21.83,20.32,9.36,2001
"7","dha7","Guysborough AntigonishStrait Health Authority",63.45,NA,26.8,NA,6.05,84.1,NA,9.59,NA,4.07,8,68.99,1.62,23.86,NA,5.54,36.06,3.07,15.48,28.7,16.69,39,NA,13.67,26.07,20.13,50.54,15.59,27.24,6.63,2001
"8","dha8","Cape Breton District Health Authority",67.52,2.19,18.23,1.32,10.74,80.92,1.46,12.68,NA,4.67,9,72.2,1.92,18.7,NA,6.39,40.24,6.27,13.54,21.25,18.71,40.62,9.89,15.96,16.24,17.29,45.45,20.99,28.65,4.9,2001
"9","dha9","Capital District Health Authority",65.51,2.43,21.57,1.59,8.9,80.14,NA,13.53,1.25,4.36,10,68.16,1.67,22.03,0.88,7.26,43.73,4.55,11.57,22.3,17.84,43.35,5.95,11.03,17.5,22.16,42.46,28.18,18.58,10.78,2001
"10","pro9012","Nova Scotia",63.33,2.46,22.94,1.81,9.46,80.56,1.12,13.22,0.87,4.22,1,67.93,1.92,22.22,0.83,7.1,41.8,4.6,12.23,23.23,18.14,41.83,5.87,11.9,19.6,20.8,44.34,24.55,21.67,9.44,2001
