"","age_group","disease","number_of_cases","rate_per_100_000_population","year"
"1","0-4","Acquired Immune Deficiency Syndrome",0,0,2014
"2","5 to 14","Acquired Immune Deficiency Syndrome",0,0,2014
"3","15-24","Acquired Immune Deficiency Syndrome",0,0,2014
"4","25-39","Acquired Immune Deficiency Syndrome",0,0,2014
"5","40-59","Acquired Immune Deficiency Syndrome",1,0.3,2014
"6","60+","Acquired Immune Deficiency Syndrome",1,0.4,2014
"7","All","Acquired Immune Deficiency Syndrome",2,0.2,2014
"8","0-4","Hepatitis B - Acute",0,0,2014
"9","5 to 14","Hepatitis B - Acute",0,0,2014
"10","15-24","Hepatitis B - Acute",0,0,2014
"11","25-39","Hepatitis B - Acute",1,0.6,2014
"12","40-59","Hepatitis B - Acute",2,0.7,2014
"13","60+","Hepatitis B - Acute",1,0.4,2014
"14","All","Hepatitis B - Acute",4,0.4,2014
"15","0-4","Hepatitis B - Chronic",0,0,2014
"16","5 to 14","Hepatitis B - Chronic",1,1.1,2014
"17","15-24","Hepatitis B - Chronic",3,2.6,2014
"18","25-39","Hepatitis B - Chronic",10,5.8,2014
"19","40-59","Hepatitis B - Chronic",3,1.1,2014
"20","60+","Hepatitis B - Chronic",3,1.3,2014
"21","All","Hepatitis B - Chronic",20,2.1,2014
"22","0-4","Hepatitis C",2,5.1,2014
"23","5 to 14","Hepatitis C",0,0,2014
"24","15-24","Hepatitis C",78,66.7,2014
"25","25-39","Hepatitis C",132,76.9,2014
"26","40-59","Hepatitis C",91,32.3,2014
"27","60+","Hepatitis C",20,8.4,2014
"28","All","Hepatitis C",323,34.4,2014
"29","0-4","Human Immunodeficiency Virus",0,0,2014
"30","5 to 14","Human Immunodeficiency Virus",0,0,2014
"31","15-24","Human Immunodeficiency Virus",3,2.6,2014
"32","25-39","Human Immunodeficiency Virus",2,1.2,2014
"33","40-59","Human Immunodeficiency Virus",5,1.8,2014
"34","60+","Human Immunodeficiency Virus",0,0,2014
"35","All","Human Immunodeficiency Virus",10,1.1,2014
"36","0-4","Clostridium difficile",14,35.6,2014
"37","5 to 14","Clostridium difficile",15,16.7,2014
"38","15-24","Clostridium difficile",23,19.7,2014
"39","25-39","Clostridium difficile",51,29.7,2014
"40","40-59","Clostridium difficile",127,45.1,2014
"41","60+","Clostridium difficile",378,157.8,2014
"42","All","Clostridium difficile",609,64.9,2014
"43","0-4","Creutzfeldt-Jakob Disease - Classic",0,0,2014
"44","5 to 14","Creutzfeldt-Jakob Disease - Classic",0,0,2014
"45","15-24","Creutzfeldt-Jakob Disease - Classic",0,0,2014
"46","25-39","Creutzfeldt-Jakob Disease - Classic",0,0,2014
"47","40-59","Creutzfeldt-Jakob Disease - Classic",0,0,2014
"48","60+","Creutzfeldt-Jakob Disease - Classic",2,0.8,2014
"49","All","Creutzfeldt-Jakob Disease - Classic",2,0.2,2014
"50","0-4","Encephalitis - Viral",0,0,2014
"51","5 to 14","Encephalitis - Viral",0,0,2014
"52","15-24","Encephalitis - Viral",0,0,2014
"53","25-39","Encephalitis - Viral",0,0,2014
"54","40-59","Encephalitis - Viral",1,0.4,2014
"55","60+","Encephalitis - Viral",0,0,2014
"56","All","Encephalitis - Viral",1,0.1,2014
"57","0-4","Group A Streptococcal Disease Invasive -> Severe",1,2.5,2014
"58","5 to 14","Group A Streptococcal Disease Invasive -> Severe",0,0,2014
"59","15-24","Group A Streptococcal Disease Invasive -> Severe",1,0.9,2014
"60","25-39","Group A Streptococcal Disease Invasive -> Severe",1,0.6,2014
"61","40-59","Group A Streptococcal Disease Invasive -> Severe",2,0.7,2014
"62","60+","Group A Streptococcal Disease Invasive -> Severe",3,1.3,2014
"63","All","Group A Streptococcal Disease Invasive -> Severe",8,0.9,2014
"64","0-4","Group A Streptococcal Disease Invasive -> non-Severe",2,5.1,2014
"65","5 to 14","Group A Streptococcal Disease Invasive -> non-Severe",1,1.1,2014
"66","15-24","Group A Streptococcal Disease Invasive -> non-Severe",0,0,2014
"67","25-39","Group A Streptococcal Disease Invasive -> non-Severe",0,0,2014
"68","40-59","Group A Streptococcal Disease Invasive -> non-Severe",3,1.1,2014
"69","60+","Group A Streptococcal Disease Invasive -> non-Severe",8,3.3,2014
"70","All","Group A Streptococcal Disease Invasive -> non-Severe",14,1.5,2014
"71","0-4","Group B Streptococcal Disease of the Newborn",1,2.5,2014
"72","5 to 14","Group B Streptococcal Disease of the Newborn",0,0,2014
"73","15-24","Group B Streptococcal Disease of the Newborn",0,0,2014
"74","25-39","Group B Streptococcal Disease of the Newborn",0,0,2014
"75","40-59","Group B Streptococcal Disease of the Newborn",0,0,2014
"76","60+","Group B Streptococcal Disease of the Newborn",0,0,2014
"77","All","Group B Streptococcal Disease of the Newborn",1,0.1,2014
"78","0-4","Influenza",26,66.2,2014
"79","5 to 14","Influenza",11,12.3,2014
"80","15-24","Influenza",5,4.3,2014
"81","25-39","Influenza",18,10.5,2014
"82","40-59","Influenza",49,17.4,2014
"83","60+","Influenza",163,68.1,2014
"84","All","Influenza",272,29,2014
"85","0-4","Legionellosis",0,0,2014
"86","5 to 14","Legionellosis",0,0,2014
"87","15-24","Legionellosis",0,0,2014
"88","25-39","Legionellosis",0,0,2014
"89","40-59","Legionellosis",3,1.1,2014
"90","60+","Legionellosis",0,0,2014
"91","All","Legionellosis",3,0.3,2014
"92","0-4","Meningitis - Bacterial",1,2.5,2014
"93","5 to 14","Meningitis - Bacterial",0,0,2014
"94","15-24","Meningitis - Bacterial",0,0,2014
"95","25-39","Meningitis - Bacterial",1,0.6,2014
"96","40-59","Meningitis - Bacterial",0,0,2014
"97","60+","Meningitis - Bacterial",0,0,2014
"98","All","Meningitis - Bacterial",2,0.2,2014
"99","0-4","Meningitis - Viral",6,15.3,2014
"100","5 to 14","Meningitis - Viral",1,1.1,2014
"101","15-24","Meningitis - Viral",1,0.9,2014
"102","25-39","Meningitis - Viral",4,2.3,2014
"103","40-59","Meningitis - Viral",3,1.1,2014
"104","60+","Meningitis - Viral",0,0,2014
"105","All","Meningitis - Viral",15,1.6,2014
"106","0-4","Meningococcal Disease Invasive",1,2.5,2014
"107","5 to 14","Meningococcal Disease Invasive",0,0,2014
"108","15-24","Meningococcal Disease Invasive",1,0.9,2014
"109","25-39","Meningococcal Disease Invasive",0,0,2014
"110","40-59","Meningococcal Disease Invasive",1,0.4,2014
"111","60+","Meningococcal Disease Invasive",0,0,2014
"112","All","Meningococcal Disease Invasive",3,0.3,2014
"113","0-4","Methicillin Resistant Staphylococcus Aureus",18,45.8,2014
"114","5 to 14","Methicillin Resistant Staphylococcus Aureus",13,14.5,2014
"115","15-24","Methicillin Resistant Staphylococcus Aureus",30,25.7,2014
"116","25-39","Methicillin Resistant Staphylococcus Aureus",56,32.6,2014
"117","40-59","Methicillin Resistant Staphylococcus Aureus",117,41.5,2014
"118","60+","Methicillin Resistant Staphylococcus Aureus",409,170.8,2014
"119","All","Methicillin Resistant Staphylococcus Aureus",644,68.6,2014
"120","0-4","Pneumococcal Disease Invasive",0,0,2014
"121","5 to 14","Pneumococcal Disease Invasive",0,0,2014
"122","15-24","Pneumococcal Disease Invasive",2,1.7,2014
"123","25-39","Pneumococcal Disease Invasive",5,2.9,2014
"124","40-59","Pneumococcal Disease Invasive",24,8.5,2014
"125","60+","Pneumococcal Disease Invasive",35,14.6,2014
"126","All","Pneumococcal Disease Invasive",66,7,2014
"127","0-4","Tuberculosis",0,0,2014
"128","5 to 14","Tuberculosis",0,0,2014
"129","15-24","Tuberculosis",1,0.9,2014
"130","25-39","Tuberculosis",5,2.9,2014
"131","40-59","Tuberculosis",1,0.4,2014
"132","60+","Tuberculosis",0,0,2014
"133","All","Tuberculosis",7,0.7,2014
"134","0-4","Vancomycin Resistant Enterococcus",0,0,2014
"135","5 to 14","Vancomycin Resistant Enterococcus",0,0,2014
"136","15-24","Vancomycin Resistant Enterococcus",0,0,2014
"137","25-39","Vancomycin Resistant Enterococcus",1,0.6,2014
"138","40-59","Vancomycin Resistant Enterococcus",5,1.8,2014
"139","60+","Vancomycin Resistant Enterococcus",11,4.6,2014
"140","All","Vancomycin Resistant Enterococcus",17,1.8,2014
"141","0-4","Amebiasis",0,0,2014
"142","5 to 14","Amebiasis",0,0,2014
"143","15-24","Amebiasis",0,0,2014
"144","25-39","Amebiasis",0,0,2014
"145","40-59","Amebiasis",2,0.7,2014
"146","60+","Amebiasis",1,0.4,2014
"147","All","Amebiasis",3,0.3,2014
"148","0-4","Botulism",0,0,2014
"149","5 to 14","Botulism",0,0,2014
"150","15-24","Botulism",0,0,2014
"151","25-39","Botulism",0,0,2014
"152","40-59","Botulism",0,0,2014
"153","60+","Botulism",0,0,2014
"154","All","Botulism",0,0,2014
"155","0-4","Campylobacteriosis",10,25.5,2014
"156","5 to 14","Campylobacteriosis",8,8.9,2014
"157","15-24","Campylobacteriosis",26,22.2,2014
"158","25-39","Campylobacteriosis",37,21.5,2014
"159","40-59","Campylobacteriosis",61,21.7,2014
"160","60+","Campylobacteriosis",38,15.9,2014
"161","All","Campylobacteriosis",180,19.2,2014
"162","0-4","Cryptosporidiosis",2,5.1,2014
"163","5 to 14","Cryptosporidiosis",4,4.5,2014
"164","15-24","Cryptosporidiosis",7,6,2014
"165","25-39","Cryptosporidiosis",9,5.2,2014
"166","40-59","Cryptosporidiosis",8,2.8,2014
"167","60+","Cryptosporidiosis",2,0.8,2014
"168","All","Cryptosporidiosis",32,3.4,2014
"169","0-4","Cyclosporiasis",0,0,2014
"170","5 to 14","Cyclosporiasis",0,0,2014
"171","15-24","Cyclosporiasis",0,0,2014
"172","25-39","Cyclosporiasis",1,0.6,2014
"173","40-59","Cyclosporiasis",0,0,2014
"174","60+","Cyclosporiasis",0,0,2014
"175","All","Cyclosporiasis",1,0.1,2014
"176","0-4","Giardiasis",5,12.7,2014
"177","5 to 14","Giardiasis",6,6.7,2014
"178","15-24","Giardiasis",9,7.7,2014
"179","25-39","Giardiasis",22,12.8,2014
"180","40-59","Giardiasis",31,11,2014
"181","60+","Giardiasis",17,7.1,2014
"182","All","Giardiasis",90,9.6,2014
"183","0-4","Hepatitis A",0,0,2014
"184","5 to 14","Hepatitis A",0,0,2014
"185","15-24","Hepatitis A",3,2.6,2014
"186","25-39","Hepatitis A",0,0,2014
"187","40-59","Hepatitis A",0,0,2014
"188","60+","Hepatitis A",0,0,2014
"189","All","Hepatitis A",3,0.3,2014
"190","0-4","Hepatitis E",0,0,2014
"191","5 to 14","Hepatitis E",0,0,2014
"192","15-24","Hepatitis E",0,0,2014
"193","25-39","Hepatitis E",0,0,2014
"194","40-59","Hepatitis E",0,0,2014
"195","60+","Hepatitis E",0,0,2014
"196","All","Hepatitis E",0,0,2014
"197","0-4","Listeriosis - Invasive",1,2.5,2014
"198","5 to 14","Listeriosis - Invasive",0,0,2014
"199","15-24","Listeriosis - Invasive",0,0,2014
"200","25-39","Listeriosis - Invasive",0,0,2014
"201","40-59","Listeriosis - Invasive",0,0,2014
"202","60+","Listeriosis - Invasive",4,1.7,2014
"203","All","Listeriosis - Invasive",5,0.5,2014
"204","0-4","Salmonellosis",16,40.7,2014
"205","5 to 14","Salmonellosis",17,19,2014
"206","15-24","Salmonellosis",20,17.1,2014
"207","25-39","Salmonellosis",32,18.6,2014
"208","40-59","Salmonellosis",64,22.7,2014
"209","60+","Salmonellosis",55,23,2014
"210","All","Salmonellosis",204,21.7,2014
"211","0-4","Shellfish Poisoning",0,0,2014
"212","5 to 14","Shellfish Poisoning",0,0,2014
"213","15-24","Shellfish Poisoning",0,0,2014
"214","25-39","Shellfish Poisoning",0,0,2014
"215","40-59","Shellfish Poisoning",0,0,2014
"216","60+","Shellfish Poisoning",0,0,2014
"217","All","Shellfish Poisoning",0,0,2014
"218","0-4","Shigellosis",0,0,2014
"219","5 to 14","Shigellosis",0,0,2014
"220","15-24","Shigellosis",2,1.7,2014
"221","25-39","Shigellosis",2,1.2,2014
"222","40-59","Shigellosis",4,1.4,2014
"223","60+","Shigellosis",1,0.4,2014
"224","All","Shigellosis",9,1,2014
"225","0-4","Typhoid",0,0,2014
"226","5 to 14","Typhoid",1,1.1,2014
"227","15-24","Typhoid",0,0,2014
"228","25-39","Typhoid",0,0,2014
"229","40-59","Typhoid",0,0,2014
"230","60+","Typhoid",1,0.4,2014
"231","All","Typhoid",2,0.2,2014
"232","0-4","Verotoxigenic E.coli",0,0,2014
"233","5 to 14","Verotoxigenic E.coli",0,0,2014
"234","15-24","Verotoxigenic E.coli",0,0,2014
"235","25-39","Verotoxigenic E.coli",0,0,2014
"236","40-59","Verotoxigenic E.coli",1,0.4,2014
"237","60+","Verotoxigenic E.coli",1,0.4,2014
"238","All","Verotoxigenic E.coli",2,0.2,2014
"239","0-4","Yersiniosis",0,0,2014
"240","5 to 14","Yersiniosis",0,0,2014
"241","15-24","Yersiniosis",0,0,2014
"242","25-39","Yersiniosis",0,0,2014
"243","40-59","Yersiniosis",1,0.4,2014
"244","60+","Yersiniosis",1,0.4,2014
"245","All","Yersiniosis",2,0.2,2014
"246","0-4","Chlamydia",1,2.5,2014
"247","5 to 14","Chlamydia",14,15.6,2014
"248","15-24","Chlamydia",1805,1543.6,2014
"249","25-39","Chlamydia",725,422.2,2014
"250","40-59","Chlamydia",81,28.7,2014
"251","60+","Chlamydia",2,0.8,2014
"252","All","Chlamydia",2628,279.9,2014
"253","0-4","Gonorrhea",0,0,2014
"254","5 to 14","Gonorrhea",0,0,2014
"255","15-24","Gonorrhea",61,52.2,2014
"256","25-39","Gonorrhea",42,24.5,2014
"257","40-59","Gonorrhea",10,3.5,2014
"258","60+","Gonorrhea",0,0,2014
"259","All","Gonorrhea",113,12,2014
"260","0-4","Lymphogranuloma Venereum",0,0,2014
"261","5 to 14","Lymphogranuloma Venereum",0,0,2014
"262","15-24","Lymphogranuloma Venereum",0,0,2014
"263","25-39","Lymphogranuloma Venereum",0,0,2014
"264","40-59","Lymphogranuloma Venereum",0,0,2014
"265","60+","Lymphogranuloma Venereum",0,0,2014
"266","All","Lymphogranuloma Venereum",0,0,2014
"267","0-4","Syphilis - Infectious",0,0,2014
"268","5 to 14","Syphilis - Infectious",0,0,2014
"269","15-24","Syphilis - Infectious",19,16.2,2014
"270","25-39","Syphilis - Infectious",27,15.7,2014
"271","40-59","Syphilis - Infectious",15,5.3,2014
"272","60+","Syphilis - Infectious",2,0.8,2014
"273","All","Syphilis - Infectious",63,6.7,2014
"274","0-4","Syphilis - Non-Infectious or Stage Pending",0,0,2014
"275","5 to 14","Syphilis - Non-Infectious or Stage Pending",0,0,2014
"276","15-24","Syphilis - Non-Infectious or Stage Pending",6,5.1,2014
"277","25-39","Syphilis - Non-Infectious or Stage Pending",14,8.2,2014
"278","40-59","Syphilis - Non-Infectious or Stage Pending",13,4.6,2014
"279","60+","Syphilis - Non-Infectious or Stage Pending",4,1.7,2014
"280","All","Syphilis - Non-Infectious or Stage Pending",37,3.9,2014
"281","0-4","Acute Flaccid Paralysis",1,2.5,2014
"282","5 to 14","Acute Flaccid Paralysis",0,0,2014
"283","15-24","Acute Flaccid Paralysis",0,0,2014
"284","25-39","Acute Flaccid Paralysis",0,0,2014
"285","40-59","Acute Flaccid Paralysis",0,0,2014
"286","60+","Acute Flaccid Paralysis",0,0,2014
"287","All","Acute Flaccid Paralysis",1,0.1,2014
"288","0-4","Haemophilus influenzae Type b Invasive Disease",0,0,2014
"289","5 to 14","Haemophilus influenzae Type b Invasive Disease",0,0,2014
"290","15-24","Haemophilus influenzae Type b Invasive Disease",0,0,2014
"291","25-39","Haemophilus influenzae Type b Invasive Disease",0,0,2014
"292","40-59","Haemophilus influenzae Type b Invasive Disease",0,0,2014
"293","60+","Haemophilus influenzae Type b Invasive Disease",0,0,2014
"294","All","Haemophilus influenzae Type b Invasive Disease",0,0,2014
"295","0-4","Mumps",0,0,2014
"296","5 to 14","Mumps",0,0,2014
"297","15-24","Mumps",1,0.9,2014
"298","25-39","Mumps",0,0,2014
"299","40-59","Mumps",0,0,2014
"300","60+","Mumps",0,0,2014
"301","All","Mumps",1,0.1,2014
"302","0-4","Pertussis",6,15.3,2014
"303","5 to 14","Pertussis",0,0,2014
"304","15-24","Pertussis",2,1.7,2014
"305","25-39","Pertussis",0,0,2014
"306","40-59","Pertussis",3,1.1,2014
"307","60+","Pertussis",0,0,2014
"308","All","Pertussis",11,1.2,2014
"309","0-4","Rubella",0,0,2014
"310","5 to 14","Rubella",0,0,2014
"311","15-24","Rubella",0,0,2014
"312","25-39","Rubella",0,0,2014
"313","40-59","Rubella",0,0,2014
"314","60+","Rubella",0,0,2014
"315","All","Rubella",0,0,2014
"316","0-4","Tetanus",0,0,2014
"317","5 to 14","Tetanus",0,0,2014
"318","15-24","Tetanus",0,0,2014
"319","25-39","Tetanus",0,0,2014
"320","40-59","Tetanus",0,0,2014
"321","60+","Tetanus",0,0,2014
"322","All","Tetanus",0,0,2014
"323","0-4","Lyme Disease - Confirmed",0,0,2014
"324","5 to 14","Lyme Disease - Confirmed",7,7.8,2014
"325","15-24","Lyme Disease - Confirmed",2,1.7,2014
"326","25-39","Lyme Disease - Confirmed",8,4.7,2014
"327","40-59","Lyme Disease - Confirmed",20,7.1,2014
"328","60+","Lyme Disease - Confirmed",31,12.9,2014
"329","All","Lyme Disease - Confirmed",68,7.2,2014
"330","0-4","Lyme Disease - Probable",2,5.1,2014
"331","5 to 14","Lyme Disease - Probable",5,5.6,2014
"332","15-24","Lyme Disease - Probable",3,2.6,2014
"333","25-39","Lyme Disease - Probable",7,4.1,2014
"334","40-59","Lyme Disease - Probable",11,3.9,2014
"335","60+","Lyme Disease - Probable",19,7.9,2014
"336","All","Lyme Disease - Probable",47,5,2014
"337","0-4","Lyme Disease - Confirmed",4,9.3,2015
"338","15-24","Lyme Disease - Confirmed",12,10.4,2015
"339","0-4","Lyme Disease - Probable",5,11.6,2015
"340","25-39","Lyme Disease - Probable",15,8.7,2015
"341","0-4","Malaria",0,0,2014
"342","5 to 14","Malaria",0,0,2014
"343","15-24","Malaria",0,0,2014
"344","25-39","Malaria",3,1.7,2014
"345","40-59","Malaria",0,0,2014
"346","60+","Malaria",0,0,2014
"347","All","Malaria",3,0.3,2014
"348","0-4","Q-Fever",0,0,2014
"349","5 to 14","Q-Fever",0,0,2014
"350","15-24","Q-Fever",0,0,2014
"351","25-39","Q-Fever",0,0,2014
"352","40-59","Q-Fever",0,0,2014
"353","60+","Q-Fever",0,0,2014
"354","All","Q-Fever",0,0,2014
"355","0-4","Toxoplasmosis",0,0,2014
"356","5 to 14","Toxoplasmosis",0,0,2014
"357","15-24","Toxoplasmosis",1,0.9,2014
"358","25-39","Toxoplasmosis",1,0.6,2014
"359","40-59","Toxoplasmosis",0,0,2014
"360","60+","Toxoplasmosis",1,0.4,2014
"361","All","Toxoplasmosis",3,0.3,2014
"362","0-4","West Nile Virus",0,0,2014
"363","5 to 14","West Nile Virus",0,0,2014
"364","15-24","West Nile Virus",0,0,2014
"365","25-39","West Nile Virus",0,0,2014
"366","40-59","West Nile Virus",0,0,2014
"367","60+","West Nile Virus",0,0,2014
"368","All","West Nile Virus",0,0,2014
"369","0-4","Lyme Disease - Confirmed",5,11.4,2016
"370","15-24","Typhoid",0,0,2015
"371","0-4","Meningococcal Disease Invasive",0,0,2016
"372","0-4","Influenza",29,66.1,2016
"373","5 to 14","Gonorrhea",1,1.1,2016
"374","5 to 14","Acquired Immune Deficiency Syndrome",0,0,2015
"375","15-24","Creutzfeldt-Jakob Disease - Classic",0,0,2015
"376","0-4","Malaria",1,2.3,2016
"377","All","Vancomycin Resistant Enterococcus",13,1.4,2016
"378","All","Giardiasis",87,9.2,2015
"379","5 to 14","Verotoxigenic E.coli",0,0,2015
"380","40-59","Syphilis - Infectious",9,3.2,2015
"381","60+","Botulism",0,0,2016
"382","5 to 14","Pneumococcal Disease Invasive",1,1.1,2016
"383","5 to 14","Mumps",1,1.1,2015
"384","15-24","Acute Flaccid Paralysis",0,0,2015
"385","All","West Nile Virus",0,0,2016
"386","60+","Campylobacteriosis",34,13.4,2016
"387","15-24","Malaria",0,0,2016
"388","15-24","Mumps",1,0.9,2016
"389","0-4","Chlamydia",2,4.6,2015
"390","60+","Campylobacteriosis",33,13.4,2015
"391","40-59","Group B Streptococcal Disease of the Newborn",0,0,2016
"392","0-4","Meningitis - Bacterial",0,0,2015
"393","15-24","Meningitis - Bacterial",0,0,2015
"394","60+","Rubella",0,0,2015
"395","All","Meningococcal Disease Invasive",7,0.7,2015
"396","0-4","Hepatitis B - Chronic",0,0,2015
"397","5 to 14","Pertussis",36,40.3,2015
"398","25-39","West Nile Virus",0,0,2016
"399","25-39","Botulism",0,0,2015
"400","25-39","Rubella",0,0,2015
"401","5 to 14","Hepatitis C",0,0,2015
"402","60+","Chlamydia",4,1.6,2016
"403","5 to 14","Listeriosis - Invasive",0,0,2015
"404","60+","Legionellosis",5,2,2015
"405","40-59","Syphilis - Infectious",4,1.5,2016
"406","0-4","West Nile Virus",0,0,2016
"407","5 to 14","Group B Streptococcal Disease of the Newborn",0,0,2016
"408","15-24","Legionellosis",0,0,2015
"409","40-59","Hepatitis B - Chronic",1,0.4,2016
"410","15-24","Legionellosis",0,0,2016
"411","15-24","Pertussis",16,13.9,2015
"412","0-4","Rubella",0,0,2015
"413","60+","Giardiasis",20,8.1,2015
"414","25-39","Verotoxigenic E.coli",2,1.2,2015
"415","60+","Hepatitis B - Acute",2,0.8,2015
"416","All","Verotoxigenic E.coli",5,0.5,2016
"417","15-24","Hepatitis B - Acute",1,0.9,2016
"418","All","Listeriosis - Invasive",8,0.8,2015
"419","25-39","Syphilis - Non-Infectious or Stage Pending",5,2.9,2016
"420","15-24","Haemophilus influenzae Type b Invasive Disease",0,0,2016
"421","25-39","Rubella",0,0,2016
"422","All","Mumps",6,0.6,2015
"423","60+","Cyclosporiasis",0,0,2016
"424","25-39","Hepatitis B - Chronic",9,5.2,2016
"425","15-24","Group A Streptococcal Disease Invasive -> Severe",0,0,2016
"426","25-39","Hepatitis A",2,1.1,2016
"427","25-39","Pneumococcal Disease Invasive",6,3.4,2016
"428","15-24","Pneumococcal Disease Invasive",3,2.6,2016
"429","All","Giardiasis",100,10.5,2016
"430","60+","Mumps",0,0,2015
"431","25-39","Tuberculosis",3,1.7,2015
"432","All","Rubella",0,0,2016
"433","25-39","Lyme Disease - Probable",18,10.3,2016
"434","5 to 14","Group A Streptococcal Disease Invasive -> non-Severe",1,1.1,2016
"435","40-59","Pneumococcal Disease Invasive",15,5.4,2015
"436","0-4","Verotoxigenic E.coli",2,4.6,2016
"437","60+","Meningococcal Disease Invasive",1,0.4,2016
"438","60+","Clostridium difficile",503,204.3,2015
"439","0-4","Human Immunodeficiency Virus",0,0,2016
"440","40-59","Tetanus",0,0,2016
"441","40-59","Salmonellosis",44,16.1,2016
"442","40-59","Group A Streptococcal Disease Invasive -> Severe",1,0.4,2016
"443","40-59","Shigellosis",3,1.1,2015
"444","5 to 14","West Nile Virus",0,0,2016
"445","40-59","Group A Streptococcal Disease Invasive -> Severe",5,1.8,2015
"446","All","Cyclosporiasis",3,0.3,2015
"447","25-39","Lyme Disease - Confirmed",19,10.9,2016
"448","40-59","Haemophilus influenzae Type b Invasive Disease",0,0,2016
"449","All","Gonorrhea",202,21.3,2016
"450","All","Shellfish Poisoning",0,0,2015
"451","15-24","Verotoxigenic E.coli",1,0.9,2016
"452","25-39","Mumps",0,0,2016
"453","5 to 14","Malaria",0,0,2016
"454","All","Acute Flaccid Paralysis",0,0,2016
"455","40-59","Hepatitis B - Acute",4,1.5,2016
"456","0-4","Tuberculosis",0,0,2016
"457","25-39","Influenza",20,11.5,2016
"458","60+","Cyclosporiasis",1,0.4,2015
"459","All","Cryptosporidiosis",27,2.8,2016
"460","40-59","Rubella",0,0,2015
"461","25-39","Hepatitis B - Acute",2,1.2,2015
"462","60+","Haemophilus influenzae Type b Invasive Disease",0,0,2015
"463","0-4","Clostridium difficile",12,27.3,2016
"464","40-59","Hepatitis A",0,0,2015
"465","0-4","Creutzfeldt-Jakob Disease - Classic",0,0,2015
"466","0-4","Acute Flaccid Paralysis",0,0,2015
"467","5 to 14","Tuberculosis",0,0,2015
"468","25-39","Mumps",1,0.6,2015
"469","15-24","Syphilis - Non-Infectious or Stage Pending",2,1.8,2016
"470","5 to 14","Meningitis - Bacterial",0,0,2015
"471","60+","Cryptosporidiosis",1,0.4,2015
"472","60+","Cryptosporidiosis",3,1.2,2016
"473","25-39","Creutzfeldt-Jakob Disease - Classic",0,0,2015
"474","0-4","Meningitis - Bacterial",0,0,2016
"475","25-39","Hepatitis B - Acute",3,1.7,2016
"476","40-59","Acquired Immune Deficiency Syndrome",1,1.1,2015
"477","60+","West Nile Virus",0,0,2015
"478","0-4","Influenza",26,60.3,2015
"479","40-59","Group B Streptococcal Disease of the Newborn",0,0,2015
"480","15-24","Shellfish Poisoning",0,0,2015
"481","0-4","Cyclosporiasis",0,0,2016
"482","0-4","Legionellosis",0,0,2015
"483","5 to 14","Hepatitis B - Acute",0,0,2015
"484","40-59","Pertussis",14,5,2015
"485","40-59","Gonorrhea",20,7.2,2015
"486","All","Chlamydia",2931,308.7,2016
"487","15-24","Acquired Immune Deficiency Syndrome",0,0,2015
"488","60+","Mumps",0,0,2016
"489","5 to 14","Lyme Disease - Confirmed",24,26.7,2016
"490","25-39","Shigellosis",1,0.6,2015
"491","40-59","Meningitis - Bacterial",0,0,2016
"492","15-24","Mumps",4,3.5,2015
"493","25-39","Group A Streptococcal Disease Invasive -> non-Severe",4,2.3,2015
"494","40-59","Malaria",1,0.4,2015
"495","25-39","Syphilis - Infectious",10,5.7,2016
"496","60+","West Nile Virus",0,0,2016
"497","25-39","Tuberculosis",1,0.6,2016
"498","All","Legionellosis",7,0.7,2015
"499","All","Malaria",4,0.4,2015
"500","15-24","Lyme Disease - Confirmed",8,7.1,2016
"501","0-4","Mumps",0,0,2016
"502","All","Syphilis - Non-Infectious or Stage Pending",17,1.8,2016
"503","40-59","Creutzfeldt-Jakob Disease - Classic",0,0,2015
"504","25-39","Syphilis - Infectious",16,9.3,2015
"505","25-39","Hepatitis A",1,0.6,2015
"506","25-39","Pertussis",9,5.2,2016
"507","40-59","Acquired Immune Deficiency Syndrome",1,0.4,2016
"508","60+","Lyme Disease - Confirmed",62,24.4,2016
"509","15-24","Group A Streptococcal Disease Invasive -> non-Severe",0,0,2016
"510","25-39","Vancomycin Resistant Enterococcus",0,0,2016
"511","5 to 14","Haemophilus influenzae Type b Invasive Disease",0,0,2016
"512","5 to 14","Lyme Disease - Probable",15,16.7,2016
"513","All","Human Immunodeficiency Virus",16,1.7,2016
"514","5 to 14","Verotoxigenic E.coli",2,2.2,2016
"515","5 to 14","Human Immunodeficiency Virus",0,0,2015
"516","15-24","Giardiasis",9,7.8,2015
"517","15-24","Shigellosis",0,0,2015
"518","5 to 14","Haemophilus influenzae Type b Invasive Disease",0,0,2015
"519","40-59","Lyme Disease - Probable",43,15.7,2016
"520","15-24","Lyme Disease - Probable",12,10.6,2016
"521","40-59","Tetanus",0,0,2015
"522","0-4","Hepatitis A",0,0,2015
"523","0-4","Syphilis - Non-Infectious or Stage Pending",0,0,2016
"524","All","Verotoxigenic E.coli",5,0.5,2015
"525","40-59","Listeriosis - Invasive",2,0.7,2015
"526","60+","Group A Streptococcal Disease Invasive -> Severe",2,0.8,2015
"527","40-59","Legionellosis",2,0.7,2015
"528","15-24","Hepatitis B - Acute",1,0.9,2015
"529","15-24","Syphilis - Infectious",18,15.7,2015
"530","0-4","Giardiasis",3,7,2015
"531","60+","Group A Streptococcal Disease Invasive -> non-Severe",4,1.6,2016
"532","15-24","Clostridium difficile",35,30.9,2016
"533","5 to 14","Influenza",25,28,2015
"534","0-4","Listeriosis - Invasive",0,0,2015
"535","5 to 14","Tetanus",0,0,2016
"536","5 to 14","Hepatitis A",0,0,2015
"537","40-59","Mumps",0,0,2015
"538","5 to 14","Group B Streptococcal Disease of the Newborn",0,0,2015
"539","60+","Meningitis - Bacterial",0,0,2016
"540","0-4","Salmonellosis",8,18.6,2015
"541","All","Pertussis",63,6.6,2016
"542","0-4","Hepatitis C",0,0,2015
"543","40-59","Gonorrhea",21,7.7,2016
"544","25-39","Pneumococcal Disease Invasive",6,3.5,2015
"545","0-4","Group A Streptococcal Disease Invasive -> Severe",0,0,2015
"546","15-24","Shigellosis",1,0.9,2016
"547","All","Typhoid",1,0.1,2016
"548","15-24","Group B Streptococcal Disease of the Newborn",0,0,2016
"549","15-24","Tetanus",0,0,2015
"550","All","Listeriosis - Invasive",4,0.4,2016
"551","0-4","Hepatitis A",3,6.8,2016
"552","All","Acquired Immune Deficiency Syndrome",1,0.1,2016
"553","0-4","Meningococcal Disease Invasive",0,0,2015
"554","All","Syphilis - Infectious",18,1.9,2016
"555","40-59","Listeriosis - Invasive",2,0.7,2016
"556","40-59","Acute Flaccid Paralysis",0,0,2016
"557","All","Botulism",0,0,2015
"558","15-24","West Nile Virus",0,0,2015
"559","60+","Vancomycin Resistant Enterococcus",4,1.6,2015
"560","15-24","Methicillin Resistant Staphylococcus Aureus",32,28.2,2016
"561","0-4","Botulism",0,0,2016
"562","5 to 14","Botulism",0,0,2016
"563","25-39","Shellfish Poisoning",0,0,2015
"564","60+","Syphilis - Non-Infectious or Stage Pending",5,2,2015
"565","25-39","Hepatitis C",144,82.5,2016
"566","15-24","Cyclosporiasis",0,0,2016
"567","60+","Giardiasis",23,9.1,2016
"568","All","Shellfish Poisoning",0,0,2016
"569","15-24","Cryptosporidiosis",5,4.4,2015
"570","5 to 14","Legionellosis",0,0,2015
"571","25-39","Campylobacteriosis",26,15.1,2015
"572","All","Haemophilus influenzae Type b Invasive Disease",0,0,2016
"573","All","Methicillin Resistant Staphylococcus Aureus",570,60,2016
"574","15-24","Tuberculosis",1,0.9,2016
"575","60+","Gonorrhea",1,0.4,2015
"576","All","Lyme Disease - Confirmed",165,17.4,2016
"577","All","Acute Flaccid Paralysis",0,0,2015
"578","60+","Syphilis - Infectious",0,0,2015
"579","60+","Typhoid",1,0.4,2016
"580","5 to 14","Malaria",0,0,2015
"581","60+","Group B Streptococcal Disease of the Newborn",0,0,2015
"582","0-4","Creutzfeldt-Jakob Disease - Classic",0,0,2016
"583","25-39","Acquired Immune Deficiency Syndrome",2,1.2,2015
"584","40-59","Hepatitis A",3,1.1,2016
"585","60+","Lyme Disease - Confirmed",51,20.7,2015
"586","60+","Acquired Immune Deficiency Syndrome",0,0,2016
"587","40-59","Clostridium difficile",186,67.9,2016
"588","All","Haemophilus influenzae Type b Invasive Disease",0,0,2015
"589","All","Hepatitis C",357,37.9,2015
"590","40-59","Typhoid",0,0,2015
"591","5 to 14","Syphilis - Non-Infectious or Stage Pending",0,0,2015
"592","25-39","Methicillin Resistant Staphylococcus Aureus",43,24.6,2016
"593","5 to 14","Human Immunodeficiency Virus",0,0,2016
"594","0-4","Pneumococcal Disease Invasive",7,16,2016
"595","60+","Salmonellosis",41,16.1,2016
"596","25-39","Giardiasis",19,11,2015
"597","25-39","Group A Streptococcal Disease Invasive -> Severe",3,1.7,2016
"598","40-59","Hepatitis B - Acute",4,1.4,2015
"599","All","Creutzfeldt-Jakob Disease - Classic",1,0.1,2016
"600","0-4","Mumps",0,0,2015
"601","60+","Salmonellosis",58,23.6,2015
"602","5 to 14","Lyme Disease - Probable",11,12.3,2015
"603","40-59","Influenza",68,32.2,2016
"604","25-39","Campylobacteriosis",43,24.6,2016
"605","0-4","Cryptosporidiosis",2,4.6,2016
"606","15-24","Hepatitis B - Chronic",0,0,2015
"607","40-59","Cryptosporidiosis",7,2.6,2016
"608","40-59","Giardiasis",36,13.1,2016
"609","25-39","Group B Streptococcal Disease of the Newborn",0,0,2015
"610","40-59","Meningococcal Disease Invasive",0,0,2015
"611","60+","Acute Flaccid Paralysis",0,0,2016
"612","60+","Pneumococcal Disease Invasive",21,8.3,2016
"613","0-4","Group A Streptococcal Disease Invasive -> non-Severe",0,0,2015
"614","5 to 14","Lyme Disease - Confirmed",12,13.4,2015
"615","60+","Shellfish Poisoning",0,0,2016
"616","25-39","Haemophilus influenzae Type b Invasive Disease",0,0,2015
"617","25-39","Vancomycin Resistant Enterococcus",0,0,2015
"618","0-4","Syphilis - Infectious",0,0,2016
"619","25-39","Haemophilus influenzae Type b Invasive Disease",0,0,2016
"620","0-4","Giardiasis",2,4.6,2016
"621","25-39","Cryptosporidiosis",7,4.1,2015
"622","15-24","Acute Flaccid Paralysis",0,0,2016
"623","15-24","Group A Streptococcal Disease Invasive -> non-Severe",0,0,2015
"624","60+","Typhoid",0,0,2015
"625","60+","Botulism",0,0,2015
"626","5 to 14","Group A Streptococcal Disease Invasive -> non-Severe",2,2.2,2015
"627","60+","Group B Streptococcal Disease of the Newborn",0,0,2016
"628","All","Pneumococcal Disease Invasive",52,5.5,2015
"629","25-39","Gonorrhea",53,30.8,2015
"630","0-4","Verotoxigenic E.coli",2,4.6,2015
"631","40-59","Hepatitis B - Chronic",3,1.1,2015
"632","60+","Influenza",179,70.5,2016
"633","15-24","Human Immunodeficiency Virus",4,3.5,2015
"634","5 to 14","Chlamydia",6,6.7,2016
"635","40-59","Haemophilus influenzae Type b Invasive Disease",0,0,2015
"636","15-24","Hepatitis A",0,0,2016
"637","60+","Pertussis",2,0.8,2016
"638","5 to 14","Giardiasis",5,5.6,2016
"639","60+","Pneumococcal Disease Invasive",25,10.2,2015
"640","0-4","Botulism",0,0,2015
"641","0-4","Acute Flaccid Paralysis",0,0,2016
"642","25-39","Botulism",0,0,2016
"643","5 to 14","Hepatitis B - Chronic",1,1.1,2016
"644","25-39","Acquired Immune Deficiency Syndrome",0,0,2016
"645","5 to 14","West Nile Virus",0,0,2015
"646","5 to 14","Rubella",0,0,2016
"647","15-24","Clostridium difficile",41,35.7,2015
"648","5 to 14","Shellfish Poisoning",0,0,2015
"649","All","Lyme Disease - Probable",161,17,2016
"650","0-4","Malaria",0,0,2015
"651","0-4","Cyclosporiasis",0,0,2015
"652","5 to 14","Salmonellosis",9,10,2016
"653","0-4","Pneumococcal Disease Invasive",3,7,2015
"654","60+","Group A Streptococcal Disease Invasive -> Severe",2,0.8,2016
"655","5 to 14","Chlamydia",16,17.9,2015
"656","All","Creutzfeldt-Jakob Disease - Classic",0,0,2015
"657","0-4","Vancomycin Resistant Enterococcus",0,0,2015
"658","25-39","Influenza",17,9.9,2015
"659","40-59","West Nile Virus",0,0,2016
"660","60+","Methicillin Resistant Staphylococcus Aureus",414,168.2,2015
"661","40-59","Pneumococcal Disease Invasive",28,10.2,2016
"662","All","Meningitis - Bacterial",0,0,2016
"663","25-39","Giardiasis",24,13.8,2016
"664","All","Methicillin Resistant Staphylococcus Aureus",625,66.3,2015
"665","60+","Tuberculosis",0,0,2016
"666","25-39","Listeriosis - Invasive",0,0,2016
"667","40-59","Hepatitis C",103,37.1,2015
"668","0-4","Methicillin Resistant Staphylococcus Aureus",15,34.8,2015
"669","5 to 14","Campylobacteriosis",4,4.5,2015
"670","5 to 14","Botulism",0,0,2015
"671","All","Group A Streptococcal Disease Invasive -> Severe",7,0.7,2016
"672","0-4","Typhoid",0,0,2015
"673","40-59","Cyclosporiasis",0,0,2016
"674","All","Hepatitis C",299,31.5,2016
"675","25-39","Syphilis - Non-Infectious or Stage Pending",12,7,2015
"676","5 to 14","Group A Streptococcal Disease Invasive -> Severe",0,0,2015
"677","60+","Creutzfeldt-Jakob Disease - Classic",0,0,2015
"678","60+","Creutzfeldt-Jakob Disease - Classic",1,0.4,2016
"679","40-59","Shigellosis",7,2.6,2016
"680","25-39","Methicillin Resistant Staphylococcus Aureus",45,26.1,2015
"681","0-4","Hepatitis B - Acute",0,0,2015
"682","25-39","Salmonellosis",30,17.4,2015
"683","40-59","Salmonellosis",54,19.5,2015
"684","All","Shigellosis",5,0.5,2015
"685","5 to 14","Acute Flaccid Paralysis",0,0,2015
"686","5 to 14","Gonorrhea",0,0,2015
"687","40-59","Malaria",4,1.5,2016
"688","5 to 14","Hepatitis C",0,0,2016
"689","15-24","Verotoxigenic E.coli",1,0.9,2015
"690","15-24","Chlamydia",1948,1695.8,2015
"691","60+","Tuberculosis",1,0.4,2015
"692","60+","Haemophilus influenzae Type b Invasive Disease",0,0,2016
"693","5 to 14","Meningococcal Disease Invasive",1,1.1,2015
"694","60+","Verotoxigenic E.coli",0,0,2015
"695","25-39","Cryptosporidiosis",6,3.4,2016
"696","0-4","Clostridium difficile",19,44.1,2015
"697","All","Syphilis - Infectious",43,4.6,2015
"698","All","Meningitis - Bacterial",0,0,2015
"699","60+","Vancomycin Resistant Enterococcus",11,4.3,2016
"700","All","Hepatitis B - Chronic",13,1.4,2016
"701","0-4","Gonorrhea",0,0,2016
"702","60+","Lyme Disease - Probable",69,27.2,2016
"703","25-39","Meningococcal Disease Invasive",0,0,2016
"704","25-39","Typhoid",0,0,2016
"705","15-24","Salmonellosis",17,15,2016
"706","5 to 14","Group A Streptococcal Disease Invasive -> Severe",0,0,2016
"707","All","Hepatitis B - Chronic",9,1,2015
"708","40-59","Vancomycin Resistant Enterococcus",0,0,2015
"709","15-24","Malaria",1,0.9,2015
"710","60+","Acquired Immune Deficiency Syndrome",0,0,2015
"711","All","Gonorrhea",133,14.1,2015
"712","0-4","Syphilis - Infectious",0,0,2015
"713","40-59","Hepatitis C",79,28.8,2016
"714","0-4","Tetanus",0,0,2015
"715","5 to 14","Salmonellosis",7,7.8,2015
"716","60+","Listeriosis - Invasive",2,0.8,2016
"717","15-24","Lyme Disease - Probable",9,7.8,2015
"718","All","Tetanus",0,0,2015
"719","40-59","Tuberculosis",1,0.4,2015
"720","25-39","Meningitis - Bacterial",0,0,2016
"721","15-24","Shellfish Poisoning",0,0,2016
"722","5 to 14","Vancomycin Resistant Enterococcus",0,0,2016
"723","15-24","Gonorrhea",86,75.8,2016
"724","25-39","Cyclosporiasis",2,1.1,2016
"725","0-4","Gonorrhea",0,0,2015
"726","5 to 14","Cyclosporiasis",0,0,2016
"727","0-4","Pertussis",19,45.3,2016
"728","0-4","Campylobacteriosis",10,22.8,2016
"729","60+","Methicillin Resistant Staphylococcus Aureus",366,144.1,2016
"730","60+","Influenza",574,233.2,2015
"731","15-24","Chlamydia",1967,1734.7,2016
"732","60+","Rubella",0,0,2016
"733","60+","Hepatitis B - Chronic",1,0.4,2015
"734","15-24","Botulism",0,0,2015
"735","5 to 14","Legionellosis",0,0,2016
"736","0-4","Tetanus",0,0,2016
"737","15-24","Influenza",10,8.8,2016
"738","60+","Shigellosis",1,0.4,2015
"739","60+","Pertussis",1,0.4,2015
"740","15-24","Cyclosporiasis",0,0,2015
"741","5 to 14","Tuberculosis",0,0,2016
"742","0-4","Shellfish Poisoning",0,0,2016
"743","All","Syphilis - Non-Infectious or Stage Pending",28,3,2015
"744","40-59","Rubella",0,0,2016
"745","60+","Human Immunodeficiency Virus",1,0.4,2016
"746","25-39","Clostridium difficile",70,40.7,2015
"747","60+","Hepatitis C",25,9.8,2016
"748","5 to 14","Typhoid",0,0,2015
"749","All","Group B Streptococcal Disease of the Newborn",3,0.3,2016
"750","15-24","Salmonellosis",12,10.4,2015
"751","0-4","Legionellosis",0,0,2016
"752","15-24","Meningococcal Disease Invasive",5,4.4,2015
"753","25-39","West Nile Virus",0,0,2015
"754","All","Acquired Immune Deficiency Syndrome",3,0.3,2015
"755","15-24","Syphilis - Non-Infectious or Stage Pending",4,3.5,2015
"756","25-39","Shigellosis",1,0.6,2016
"757","All","Pertussis",110,11.7,2015
"758","40-59","Shellfish Poisoning",0,0,2015
"759","15-24","Vancomycin Resistant Enterococcus",0,0,2016
"760","All","Chlamydia",2860,303.3,2015
"761","0-4","Chlamydia",2,4.6,2016
"762","All","Salmonellosis",169,17.9,2015
"763","All","Lyme Disease - Confirmed",124,13.1,2015
"764","60+","Human Immunodeficiency Virus",0,0,2015
"765","15-24","Acquired Immune Deficiency Syndrome",0,0,2016
"766","5 to 14","Shigellosis",0,0,2016
"767","5 to 14","Creutzfeldt-Jakob Disease - Classic",0,0,2016
"768","All","Botulism",0,0,2016
"769","15-24","Hepatitis C",50,44.1,2016
"770","5 to 14","Typhoid",0,0,2016
"771","40-59","Campylobacteriosis",53,19.1,2015
"772","0-4","Listeriosis - Invasive",0,0,2016
"773","60+","Hepatitis C",31,12.6,2015
"774","15-24","Rubella",0,0,2015
"775","60+","Legionellosis",1,0.4,2016
"776","40-59","Lyme Disease - Probable",35,12.6,2015
"777","All","Cyclosporiasis",2,0.2,2016
"778","15-24","Hepatitis C",76,66.2,2015
"779","60+","Verotoxigenic E.coli",0,0,2016
"780","40-59","Meningococcal Disease Invasive",1,0.4,2016
"781","15-24","Listeriosis - Invasive",0,0,2016
"782","25-39","Malaria",1,0.6,2016
"783","All","West Nile Virus",0,0,2015
"784","60+","Hepatitis B - Acute",2,0.8,2016
"785","40-59","Verotoxigenic E.coli",0,0,2016
"786","All","Lyme Disease - Probable",130,13.8,2015
"787","5 to 14","Tetanus",0,0,2015
"788","40-59","Lyme Disease - Confirmed",34,12.3,2015
"789","5 to 14","Syphilis - Infectious",0,0,2016
"790","5 to 14","Giardiasis",1,1.1,2015
"791","15-24","Pneumococcal Disease Invasive",2,1.7,2015
"792","25-39","Malaria",2,1.2,2015
"793","0-4","Tuberculosis",0,0,2015
"794","15-24","Giardiasis",10,8.8,2016
"795","60+","Syphilis - Non-Infectious or Stage Pending",3,1.2,2016
"796","All","Typhoid",0,0,2015
"797","25-39","Gonorrhea",91,52.2,2016
"798","0-4","Salmonellosis",7,16,2016
"799","5 to 14","Methicillin Resistant Staphylococcus Aureus",13,14.6,2015
"800","All","Tuberculosis",6,0.6,2015
"801","15-24","Hepatitis A",0,0,2015
"802","0-4","Acquired Immune Deficiency Syndrome",0,0,2015
"803","All","Clostridium difficile",874,92,2016
"804","60+","Tetanus",0,0,2016
"805","25-39","Human Immunodeficiency Virus",4,2.3,2016
"806","60+","Meningococcal Disease Invasive",1,0.4,2015
"807","25-39","Verotoxigenic E.coli",0,0,2016
"808","5 to 14","Clostridium difficile",14,15.7,2015
"809","25-39","Typhoid",0,0,2015
"810","40-59","Cryptosporidiosis",4,1.4,2015
"811","25-39","Meningococcal Disease Invasive",0,0,2015
"812","25-39","Hepatitis B - Chronic",5,2.9,2015
"813","15-24","Meningococcal Disease Invasive",2,1.8,2016
"814","40-59","Influenza",66,23.8,2015
"815","60+","Syphilis - Infectious",1,0.4,2016
"816","All","Hepatitis A",1,0.1,2015
"817","40-59","Chlamydia",97,35.4,2016
"818","0-4","Hepatitis B - Acute",0,0,2016
"819","15-24","Vancomycin Resistant Enterococcus",0,0,2015
"820","All","Cryptosporidiosis",17,1.8,2015
"821","60+","Lyme Disease - Probable",54,21.9,2015
"822","60+","Malaria",0,0,2016
"823","5 to 14","Influenza",19,21.2,2016
"824","15-24","Campylobacteriosis",20,17.6,2016
"825","0-4","Group B Streptococcal Disease of the Newborn",3,6.8,2016
"826","40-59","Lyme Disease - Confirmed",47,17.2,2016
"827","60+","Shigellosis",0,0,2016
"828","All","Influenza",325,34.2,2016
"829","60+","Malaria",0,0,2015
"830","40-59","Syphilis - Non-Infectious or Stage Pending",5,1.8,2015
"831","0-4","Rubella",0,0,2016
"832","15-24","Group A Streptococcal Disease Invasive -> Severe",0,0,2015
"833","5 to 14","Cryptosporidiosis",3,3.3,2016
"834","40-59","Legionellosis",0,0,2016
"835","0-4","West Nile Virus",0,0,2015
"836","0-4","Hepatitis B - Chronic",0,0,2016
"837","5 to 14","Syphilis - Infectious",0,0,2015
"838","All","Group A Streptococcal Disease Invasive -> non-Severe",15,1.6,2015
"839","25-39","Lyme Disease - Confirmed",11,6.4,2015
"840","25-39","Salmonellosis",21,12,2016
"841","0-4","Pertussis",31,71.9,2015
"842","25-39","Meningitis - Bacterial",0,0,2015
"843","40-59","Clostridium difficile",165,59.5,2015
"844","40-59","Human Immunodeficiency Virus",6,2.2,2016
"845","5 to 14","Cryptosporidiosis",0,0,2015
"846","All","Mumps",1,0.1,2016
"847","60+","Hepatitis A",0,0,2015
"848","All","Hepatitis A",11,1.2,2016
"849","15-24","Listeriosis - Invasive",0,0,2015
"850","15-24","Cryptosporidiosis",6,5.3,2016
"851","25-39","Cyclosporiasis",0,0,2015
"852","0-4","Vancomycin Resistant Enterococcus",0,0,2016
"853","All","Pneumococcal Disease Invasive",66,7,2016
"854","40-59","Chlamydia",80,28.8,2015
"855","25-39","Chlamydia",806,468.3,2015
"856","0-4","Haemophilus influenzae Type b Invasive Disease",0,0,2015
"857","All","Salmonellosis",139,14.6,2016
"858","40-59","Tuberculosis",0,0,2016
"859","60+","Acute Flaccid Paralysis",0,0,2015
"860","0-4","Shigellosis",0,0,2015
"861","40-59","Syphilis - Non-Infectious or Stage Pending",7,2.6,2016
"862","40-59","Group A Streptococcal Disease Invasive -> non-Severe",4,1.5,2016
"863","40-59","Vancomycin Resistant Enterococcus",2,0.7,2016
"864","25-39","Clostridium difficile",75,43,2016
"865","40-59","Pertussis",5,1.8,2016
"866","5 to 14","Mumps",0,0,2016
"867","60+","Shellfish Poisoning",0,0,2015
"868","0-4","Acquired Immune Deficiency Syndrome",0,0,2016
"869","5 to 14","Listeriosis - Invasive",0,0,2016
"870","15-24","Campylobacteriosis",31,27,2015
"871","5 to 14","Shigellosis",0,0,2015
"872","25-39","Pertussis",12,7,2015
"873","40-59","Mumps",0,0,2016
"874","60+","Hepatitis B - Chronic",2,0.8,2016
"875","25-39","Legionellosis",0,0,2015
"876","0-4","Group A Streptococcal Disease Invasive -> Severe",1,2.3,2016
"877","All","Tuberculosis",2,0.2,2016
"878","40-59","Botulism",0,0,2015
"879","25-39","Acute Flaccid Paralysis",0,0,2016
"880","25-39","Tetanus",0,0,2015
"881","25-39","Legionellosis",0,0,2016
"882","15-24","Creutzfeldt-Jakob Disease - Classic",0,0,2016
"883","15-24","Syphilis - Infectious",3,2.6,2016
"884","All","Malaria",6,0.6,2016
"885","15-24","Group B Streptococcal Disease of the Newborn",0,0,2015
"886","All","Vancomycin Resistant Enterococcus",4,0.4,2015
"887","40-59","Campylobacteriosis",54,19.7,2016
"888","15-24","West Nile Virus",0,0,2016
"889","All","Shigellosis",10,1.1,2016
"890","All","Group A Streptococcal Disease Invasive -> Severe",10,1.1,2015
"891","All","Group A Streptococcal Disease Invasive -> non-Severe",12,1.3,2016
"892","40-59","Shellfish Poisoning",0,0,2016
"893","60+","Gonorrhea",3,1.2,2016
"894","0-4","Typhoid",0,0,2016
"895","All","Group B Streptococcal Disease of the Newborn",3,0.3,2015
"896","60+","Clostridium difficile",552,217.3,2016
"897","5 to 14","Shellfish Poisoning",0,0,2016
"898","60+","Hepatitis A",1,0.4,2016
"899","15-24","Botulism",0,0,2016
"900","25-39","Tetanus",0,0,2016
"901","All","Rubella",0,0,2015
"902","25-39","Group B Streptococcal Disease of the Newborn",0,0,2016
"903","5 to 14","Meningococcal Disease Invasive",0,0,2016
"904","25-39","Acute Flaccid Paralysis",0,0,2015
"905","15-24","Typhoid",0,0,2016
"906","60+","Meningitis - Bacterial",0,0,2015
"907","60+","Chlamydia",8,3.3,2015
"908","0-4","Group A Streptococcal Disease Invasive -> non-Severe",0,0,2016
"909","25-39","Human Immunodeficiency Virus",10,5.8,2015
"910","25-39","Listeriosis - Invasive",1,0.6,2015
"911","40-59","Acute Flaccid Paralysis",0,0,2015
"912","5 to 14","Clostridium difficile",14,15.6,2016
"913","25-39","Chlamydia",853,488.9,2016
"914","0-4","Syphilis - Non-Infectious or Stage Pending",2,4.6,2015
"915","5 to 14","Pertussis",18,20.1,2016
"916","5 to 14","Meningitis - Bacterial",0,0,2016
"917","15-24","Rubella",0,0,2016
"918","0-4","Cryptosporidiosis",0,0,2015
"919","All","Meningococcal Disease Invasive",4,0.4,2016
"920","5 to 14","Cyclosporiasis",0,0,2015
"921","All","Campylobacteriosis",170,17.9,2016
"922","15-24","Human Immunodeficiency Virus",5,4.4,2016
"923","15-24","Influenza",9,7.8,2015
"924","All","Hepatitis B - Acute",10,1.1,2016
"925","0-4","Hepatitis C",1,2.3,2016
"926","15-24","Pertussis",10,8.8,2016
"927","All","Legionellosis",1,0.1,2016
"928","All","Clostridium difficile",812,86.1,2015
"929","40-59","Cyclosporiasis",2,0.7,2015
"930","25-39","Hepatitis C",147,85.4,2015
"931","40-59","West Nile Virus",0,0,2015
"932","40-59","Typhoid",0,0,2016
"933","60+","Listeriosis - Invasive",5,2,2015
"934","40-59","Human Immunodeficiency Virus",3,1.1,2015
"935","All","Influenza",718,76.1,2015
"936","5 to 14","Vancomycin Resistant Enterococcus",0,0,2015
"937","0-4","Haemophilus influenzae Type b Invasive Disease",0,0,2016
"938","25-39","Shellfish Poisoning",0,0,2016
"939","5 to 14","Hepatitis B - Chronic",0,0,2015
"940","25-39","Creutzfeldt-Jakob Disease - Classic",0,0,2016
"941","0-4","Group B Streptococcal Disease of the Newborn",3,7,2015
"942","All","Human Immunodeficiency Virus",17,1.8,2015
"943","40-59","Giardiasis",35,12.6,2015
"944","5 to 14","Syphilis - Non-Infectious or Stage Pending",0,0,2016
"945","15-24","Tetanus",0,0,2016
"946","5 to 14","Hepatitis A",2,2.2,2016
"947","0-4","Campylobacteriosis",8,18.6,2015
"948","40-59","Verotoxigenic E.coli",0,0,2015
"949","40-59","Botulism",0,0,2016
"950","15-24","Gonorrhea",59,51.4,2015
"951","15-24","Hepatitis B - Chronic",0,0,2016
"952","25-39","Group A Streptococcal Disease Invasive -> Severe",3,1.7,2015
"953","0-4","Methicillin Resistant Staphylococcus Aureus",12,27.3,2016
"954","5 to 14","Pneumococcal Disease Invasive",1,1.1,2015
"955","0-4","Human Immunodeficiency Virus",0,0,2015
"956","All","Hepatitis B - Acute",9,1,2015
"957","5 to 14","Hepatitis B - Acute",0,0,2016
"958","All","Campylobacteriosis",155,16.4,2015
"959","25-39","Group A Streptococcal Disease Invasive -> non-Severe",3,1.7,2016
"960","40-59","Methicillin Resistant Staphylococcus Aureus",105,37.8,2015
"961","15-24","Haemophilus influenzae Type b Invasive Disease",0,0,2015
"962","0-4","Shellfish Poisoning",0,0,2015
"963","40-59","Creutzfeldt-Jakob Disease - Classic",0,0,2016
"964","15-24","Tuberculosis",1,0.9,2015
"965","0-4","Shigellosis",1,2.3,2016
"966","5 to 14","Acute Flaccid Paralysis",0,0,2016
"967","40-59","Meningitis - Bacterial",0,0,2015
"968","60+","Group A Streptococcal Disease Invasive -> non-Severe",6,2.4,2015
"969","60+","Tetanus",0,0,2015
"970","5 to 14","Methicillin Resistant Staphylococcus Aureus",12,13.4,2016
"971","40-59","Group A Streptococcal Disease Invasive -> non-Severe",3,1.1,2015
"972","40-59","Methicillin Resistant Staphylococcus Aureus",104,38,2016
"973","15-24","Meningitis - Bacterial",0,0,2016
"974","5 to 14","Rubella",0,0,2015
"975","5 to 14","Acquired Immune Deficiency Syndrome",0,0,2016
"976","15-24","Methicillin Resistant Staphylococcus Aureus",31,27,2015
"977","0-4","Lyme Disease - Probable",4,9.1,2016
"978","All","Tetanus",0,0,2016
"979","5 to 14","Creutzfeldt-Jakob Disease - Classic",0,0,2015
"980","5 to 14","Campylobacteriosis",9,10,2016
