"","board_code","board_name","enrolment","school_code","school_name","year"
"1",51,"CAPE BRETON-VICTORIA REGIONAL",28,1142,"RANKIN SCHOOL OF THE NARROWS  ","2015-2016"
"2",52,"STRAIT REGIONAL",20,934,"ANTIGONISH EDUCATION CENTRE ","2015-2016"
"3",52,"STRAIT REGIONAL",36,932,"BAYVIEW EDUCATION CENTRE      ","2015-2016"
"4",52,"STRAIT REGIONAL",99,930,"DALBRAE ACADEMY               ","2015-2016"
"5",52,"STRAIT REGIONAL",131,707,"DR. JOHN HUGH GILLIS REGIONAL HIGH SCHOOL","2015-2016"
"6",52,"STRAIT REGIONAL",9,143,"H. M. MACDONALD ELEMENTARY SCHOOL","2015-2016"
"7",52,"STRAIT REGIONAL",70,388,"ST. ANDREW JUNIOR HIGH SCHOOL ","2015-2016"
"8",52,"STRAIT REGIONAL",32,388,"ST. ANDREWS CONSOLIDATED","2015-2016"
"9",52,"STRAIT REGIONAL",28,388,"WHYCOCOMAGH EDUCATION CENTRE  ","2015-2016"
"10",54,"HALIFAX REGIONAL",86,1109,"CITADEL HIGH SCHOOL                  ","2015-2016"
"11",55,"ANNAPOLIS VALLEY REGIONAL",11,1108,"LAWRENCETOWN EDUCATION CENTRE ","2015-2016"
