"","scholarships","scholarships_awarded","schools_boards","year"
"1","University Entrance",24,"Halifax Regional School Board","1996/97"
"2","University Entrance",28,"Halifax Regional School Board","1997/98"
"3","University Entrance",27,"Halifax Regional School Board","1998/99"
"4","University Entrance",28,"Halifax Regional School Board","1999/00"
"5","University Entrance",29,"Halifax Regional School Board","2000/01"
"6","University Entrance",27,"Halifax Regional School Board","2001/02"
"7","University Entrance",19,"Halifax Regional School Board","2002/03"
"8","University Entrance",40,"Halifax Regional School Board","2003/04"
"9","University Entrance",36,"Halifax Regional School Board","2004/05"
"10","University Entrance",55,"Halifax Regional School Board","2005/06"
"11","University Entrance",51,"Halifax Regional School Board","2006/07"
"12","University Entrance",29,"Halifax Regional School Board","2007/08"
"13","University Entrance",59,"Halifax Regional School Board","2008/09"
"14","University Entrance",55,"Halifax Regional School Board","2009/10"
"15","University Entrance",59,"Halifax Regional School Board","2010/11"
"16","University Entrance",55,"Halifax Regional School Board","2011/12"
"17","University Entrance",78,"Halifax Regional School Board","2012/13"
"18","University Entrance",75,"Halifax Regional School Board","2013/14"
"19","University Entrance",56,"Halifax Regional School Board","2014/15"
"20","University Entrance",75,"Halifax Regional School Board","2015/16"
"21","University Entrance",73,"Halifax Regional School Board","2016/17"
"22","Post-Secondary",39,"Halifax Regional School Board","1996/97"
"23","Post-Secondary",46,"Halifax Regional School Board","1997/98"
"24","Post-Secondary",58,"Halifax Regional School Board","1998/99"
"25","Post-Secondary",54,"Halifax Regional School Board","1999/00"
"26","Post-Secondary",48,"Halifax Regional School Board","2000/01"
"27","Post-Secondary",29,"Halifax Regional School Board","2001/02"
"28","Post-Secondary",55,"Halifax Regional School Board","2002/03"
"29","Post-Secondary",43,"Halifax Regional School Board","2003/04"
"30","Post-Secondary",44,"Halifax Regional School Board","2004/05"
"31","Post-Secondary",44,"Halifax Regional School Board","2005/06"
"32","Post-Secondary",74,"Halifax Regional School Board","2006/07"
"33","Post-Secondary",94,"Halifax Regional School Board","2007/08"
"34","Post-Secondary",74,"Halifax Regional School Board","2008/09"
"35","Post-Secondary",57,"Halifax Regional School Board","2009/10"
"36","Post-Secondary",91,"Halifax Regional School Board","2010/11"
"37","Post-Secondary",96,"Halifax Regional School Board","2011/12"
"38","Post-Secondary",113,"Halifax Regional School Board","2012/13"
"39","Post-Secondary",98,"Halifax Regional School Board","2013/14"
"40","Post-Secondary",137,"Halifax Regional School Board","2014/15"
"41","Post-Secondary",105,"Halifax Regional School Board","2015/16"
"42","Post-Secondary",95,"Halifax Regional School Board","2016/17"
"43","Community College/Trade School Award",14,"Halifax Regional School Board","1996/97"
"44","Community College/Trade School Award",17,"Halifax Regional School Board","1997/98"
"45","Community College/Trade School Award",27,"Halifax Regional School Board","1998/99"
"46","Community College/Trade School Award",34,"Halifax Regional School Board","1999/00"
"47","Community College/Trade School Award",34,"Halifax Regional School Board","2000/01"
"48","Community College/Trade School Award",23,"Halifax Regional School Board","2001/02"
"49","Community College/Trade School Award",32,"Halifax Regional School Board","2002/03"
"50","Community College/Trade School Award",37,"Halifax Regional School Board","2003/04"
"51","Community College/Trade School Award",38,"Halifax Regional School Board","2004/05"
"52","Community College/Trade School Award",60,"Halifax Regional School Board","2005/06"
"53","Community College/Trade School Award",65,"Halifax Regional School Board","2006/07"
"54","Community College/Trade School Award",58,"Halifax Regional School Board","2007/08"
"55","Community College/Trade School Award",65,"Halifax Regional School Board","2008/09"
"56","Community College/Trade School Award",95,"Halifax Regional School Board","2009/10"
"57","Community College/Trade School Award",99,"Halifax Regional School Board","2010/11"
"58","Community College/Trade School Award",76,"Halifax Regional School Board","2011/12"
"59","Community College/Trade School Award",124,"Halifax Regional School Board","2012/13"
"60","Community College/Trade School Award",124,"Halifax Regional School Board","2013/14"
"61","Community College/Trade School Award",103,"Halifax Regional School Board","2014/15"
"62","Community College/Trade School Award",62,"Halifax Regional School Board","2015/16"
"63","Community College/Trade School Award",54,"Halifax Regional School Board","2016/17"
"64","Performing Arts*",0,"Halifax Regional School Board","1996/97"
"65","Performing Arts*",0,"Halifax Regional School Board","1997/98"
"66","Performing Arts*",0,"Halifax Regional School Board","1998/99"
"67","Performing Arts*",0,"Halifax Regional School Board","1999/00"
"68","Performing Arts*",0,"Halifax Regional School Board","2000/01"
"69","Performing Arts*",1,"Halifax Regional School Board","2001/02"
"70","Performing Arts*",1,"Halifax Regional School Board","2002/03"
"71","Performing Arts*",0,"Halifax Regional School Board","2003/04"
"72","Performing Arts*",0,"Halifax Regional School Board","2004/05"
"73","Performing Arts*",1,"Halifax Regional School Board","2005/06"
"74","Performing Arts*",0,"Halifax Regional School Board","2006/07"
"75","Performing Arts*",1,"Halifax Regional School Board","2007/08"
"76","Performing Arts*",0,"Halifax Regional School Board","2008/09"
"77","Performing Arts*",1,"Halifax Regional School Board","2009/10"
"78","Performing Arts*",1,"Halifax Regional School Board","2010/11"
"79","Performing Arts*",1,"Halifax Regional School Board","2011/12"
"80","Performing Arts*",1,"Halifax Regional School Board","2012/13"
"81","Performing Arts*",1,"Halifax Regional School Board","2013/14"
"82","Performing Arts*",0,"Halifax Regional School Board","2014/15"
"83","Performing Arts*",1,"Halifax Regional School Board","2015/16"
"84","Performing Arts*",1,"Halifax Regional School Board","2016/17"
"85","University Entrance",5,"Strait Regional School Board","1996/97"
"86","University Entrance",2,"Strait Regional School Board","1997/98"
"87","University Entrance",1,"Strait Regional School Board","1998/99"
"88","University Entrance",1,"Strait Regional School Board","1999/00"
"89","University Entrance",1,"Strait Regional School Board","2000/01"
"90","University Entrance",1,"Strait Regional School Board","2001/02"
"91","University Entrance",0,"Strait Regional School Board","2002/03"
"92","University Entrance",2,"Strait Regional School Board","2003/04"
"93","University Entrance",1,"Strait Regional School Board","2004/05"
"94","University Entrance",0,"Strait Regional School Board","2005/06"
"95","University Entrance",1,"Strait Regional School Board","2006/07"
"96","University Entrance",4,"Strait Regional School Board","2007/08"
"97","University Entrance",7,"Strait Regional School Board","2008/09"
"98","University Entrance",3,"Strait Regional School Board","2009/10"
"99","University Entrance",8,"Strait Regional School Board","2010/11"
"100","University Entrance",8,"Strait Regional School Board","2011/12"
"101","University Entrance",6,"Strait Regional School Board","2012/13"
"102","University Entrance",1,"Strait Regional School Board","2013/14"
"103","University Entrance",3,"Strait Regional School Board","2014/15"
"104","University Entrance",3,"Strait Regional School Board","2015/16"
"105","University Entrance",6,"Strait Regional School Board","2016/17"
"106","Post-Secondary",2,"Strait Regional School Board","1996/97"
"107","Post-Secondary",4,"Strait Regional School Board","1997/98"
"108","Post-Secondary",2,"Strait Regional School Board","1998/99"
"109","Post-Secondary",3,"Strait Regional School Board","1999/00"
"110","Post-Secondary",2,"Strait Regional School Board","2000/01"
"111","Post-Secondary",2,"Strait Regional School Board","2001/02"
"112","Post-Secondary",3,"Strait Regional School Board","2002/03"
"113","Post-Secondary",2,"Strait Regional School Board","2003/04"
"114","Post-Secondary",2,"Strait Regional School Board","2004/05"
"115","Post-Secondary",1,"Strait Regional School Board","2005/06"
"116","Post-Secondary",3,"Strait Regional School Board","2006/07"
"117","Post-Secondary",1,"Strait Regional School Board","2007/08"
"118","Post-Secondary",3,"Strait Regional School Board","2008/09"
"119","Post-Secondary",8,"Strait Regional School Board","2009/10"
"120","Post-Secondary",7,"Strait Regional School Board","2010/11"
"121","Post-Secondary",8,"Strait Regional School Board","2011/12"
"122","Post-Secondary",7,"Strait Regional School Board","2012/13"
"123","Post-Secondary",7,"Strait Regional School Board","2013/14"
"124","Post-Secondary",6,"Strait Regional School Board","2014/15"
"125","Post-Secondary",5,"Strait Regional School Board","2015/16"
"126","Post-Secondary",5,"Strait Regional School Board","2016/17"
"127","Community College/Trade School Award",0,"Strait Regional School Board","1996/97"
"128","Community College/Trade School Award",3,"Strait Regional School Board","1997/98"
"129","Community College/Trade School Award",3,"Strait Regional School Board","1998/99"
"130","Community College/Trade School Award",4,"Strait Regional School Board","1999/00"
"131","Community College/Trade School Award",7,"Strait Regional School Board","2000/01"
"132","Community College/Trade School Award",3,"Strait Regional School Board","2001/02"
"133","Community College/Trade School Award",3,"Strait Regional School Board","2002/03"
"134","Community College/Trade School Award",7,"Strait Regional School Board","2003/04"
"135","Community College/Trade School Award",10,"Strait Regional School Board","2004/05"
"136","Community College/Trade School Award",6,"Strait Regional School Board","2005/06"
"137","Community College/Trade School Award",9,"Strait Regional School Board","2006/07"
"138","Community College/Trade School Award",1,"Strait Regional School Board","2007/08"
"139","Community College/Trade School Award",2,"Strait Regional School Board","2008/09"
"140","Community College/Trade School Award",4,"Strait Regional School Board","2009/10"
"141","Community College/Trade School Award",3,"Strait Regional School Board","2010/11"
"142","Community College/Trade School Award",6,"Strait Regional School Board","2011/12"
"143","Community College/Trade School Award",7,"Strait Regional School Board","2012/13"
"144","Community College/Trade School Award",7,"Strait Regional School Board","2013/14"
"145","Community College/Trade School Award",14,"Strait Regional School Board","2014/15"
"146","Community College/Trade School Award",11,"Strait Regional School Board","2015/16"
"147","Community College/Trade School Award",7,"Strait Regional School Board","2016/17"
"148","Performing Arts*",0,"Strait Regional School Board","1996/97"
"149","Performing Arts*",0,"Strait Regional School Board","1997/98"
"150","Performing Arts*",0,"Strait Regional School Board","1998/99"
"151","Performing Arts*",0,"Strait Regional School Board","1999/00"
"152","Performing Arts*",0,"Strait Regional School Board","2000/01"
"153","Performing Arts*",0,"Strait Regional School Board","2001/02"
"154","Performing Arts*",0,"Strait Regional School Board","2002/03"
"155","Performing Arts*",0,"Strait Regional School Board","2003/04"
"156","Performing Arts*",0,"Strait Regional School Board","2004/05"
"157","Performing Arts*",0,"Strait Regional School Board","2005/06"
"158","Performing Arts*",0,"Strait Regional School Board","2006/07"
"159","Performing Arts*",0,"Strait Regional School Board","2007/08"
"160","Performing Arts*",0,"Strait Regional School Board","2008/09"
"161","Performing Arts*",0,"Strait Regional School Board","2009/10"
"162","Performing Arts*",0,"Strait Regional School Board","2010/11"
"163","Performing Arts*",0,"Strait Regional School Board","2011/12"
"164","Performing Arts*",0,"Strait Regional School Board","2012/13"
"165","Performing Arts*",0,"Strait Regional School Board","2013/14"
"166","Performing Arts*",0,"Strait Regional School Board","2014/15"
"167","Performing Arts*",0,"Strait Regional School Board","2015/16"
"168","Performing Arts*",0,"Strait Regional School Board","2016/17"
"169","University Entrance",5,"Annapolis Valley Regional School Board","1996/97"
"170","University Entrance",2,"Annapolis Valley Regional School Board","1997/98"
"171","University Entrance",6,"Annapolis Valley Regional School Board","1998/99"
"172","University Entrance",3,"Annapolis Valley Regional School Board","1999/00"
"173","University Entrance",7,"Annapolis Valley Regional School Board","2000/01"
"174","University Entrance",5,"Annapolis Valley Regional School Board","2001/02"
"175","University Entrance",7,"Annapolis Valley Regional School Board","2002/03"
"176","University Entrance",7,"Annapolis Valley Regional School Board","2003/04"
"177","University Entrance",6,"Annapolis Valley Regional School Board","2004/05"
"178","University Entrance",2,"Annapolis Valley Regional School Board","2005/06"
"179","University Entrance",5,"Annapolis Valley Regional School Board","2006/07"
"180","University Entrance",9,"Annapolis Valley Regional School Board","2007/08"
"181","University Entrance",7,"Annapolis Valley Regional School Board","2008/09"
"182","University Entrance",10,"Annapolis Valley Regional School Board","2009/10"
"183","University Entrance",8,"Annapolis Valley Regional School Board","2010/11"
"184","University Entrance",7,"Annapolis Valley Regional School Board","2011/12"
"185","University Entrance",6,"Annapolis Valley Regional School Board","2012/13"
"186","University Entrance",3,"Annapolis Valley Regional School Board","2013/14"
"187","University Entrance",6,"Annapolis Valley Regional School Board","2014/15"
"188","University Entrance",4,"Annapolis Valley Regional School Board","2015/16"
"189","University Entrance",8,"Annapolis Valley Regional School Board","2016/17"
"190","Post-Secondary",3,"Annapolis Valley Regional School Board","1996/97"
"191","Post-Secondary",5,"Annapolis Valley Regional School Board","1997/98"
"192","Post-Secondary",4,"Annapolis Valley Regional School Board","1998/99"
"193","Post-Secondary",7,"Annapolis Valley Regional School Board","1999/00"
"194","Post-Secondary",7,"Annapolis Valley Regional School Board","2000/01"
"195","Post-Secondary",7,"Annapolis Valley Regional School Board","2001/02"
"196","Post-Secondary",2,"Annapolis Valley Regional School Board","2002/03"
"197","Post-Secondary",6,"Annapolis Valley Regional School Board","2003/04"
"198","Post-Secondary",4,"Annapolis Valley Regional School Board","2004/05"
"199","Post-Secondary",5,"Annapolis Valley Regional School Board","2005/06"
"200","Post-Secondary",5,"Annapolis Valley Regional School Board","2006/07"
"201","Post-Secondary",8,"Annapolis Valley Regional School Board","2007/08"
"202","Post-Secondary",13,"Annapolis Valley Regional School Board","2008/09"
"203","Post-Secondary",13,"Annapolis Valley Regional School Board","2009/10"
"204","Post-Secondary",13,"Annapolis Valley Regional School Board","2010/11"
"205","Post-Secondary",11,"Annapolis Valley Regional School Board","2011/12"
"206","Post-Secondary",5,"Annapolis Valley Regional School Board","2012/13"
"207","Post-Secondary",9,"Annapolis Valley Regional School Board","2013/14"
"208","Post-Secondary",14,"Annapolis Valley Regional School Board","2014/15"
"209","Post-Secondary",6,"Annapolis Valley Regional School Board","2015/16"
"210","Post-Secondary",7,"Annapolis Valley Regional School Board","2016/17"
"211","Community College/Trade School Award",3,"Annapolis Valley Regional School Board","1996/97"
"212","Community College/Trade School Award",4,"Annapolis Valley Regional School Board","1997/98"
"213","Community College/Trade School Award",8,"Annapolis Valley Regional School Board","1998/99"
"214","Community College/Trade School Award",3,"Annapolis Valley Regional School Board","1999/00"
"215","Community College/Trade School Award",7,"Annapolis Valley Regional School Board","2000/01"
"216","Community College/Trade School Award",3,"Annapolis Valley Regional School Board","2001/02"
"217","Community College/Trade School Award",1,"Annapolis Valley Regional School Board","2002/03"
"218","Community College/Trade School Award",2,"Annapolis Valley Regional School Board","2003/04"
"219","Community College/Trade School Award",4,"Annapolis Valley Regional School Board","2004/05"
"220","Community College/Trade School Award",12,"Annapolis Valley Regional School Board","2005/06"
"221","Community College/Trade School Award",7,"Annapolis Valley Regional School Board","2006/07"
"222","Community College/Trade School Award",8,"Annapolis Valley Regional School Board","2007/08"
"223","Community College/Trade School Award",6,"Annapolis Valley Regional School Board","2008/09"
"224","Community College/Trade School Award",17,"Annapolis Valley Regional School Board","2009/10"
"225","Community College/Trade School Award",11,"Annapolis Valley Regional School Board","2010/11"
"226","Community College/Trade School Award",11,"Annapolis Valley Regional School Board","2011/12"
"227","Community College/Trade School Award",7,"Annapolis Valley Regional School Board","2012/13"
"228","Community College/Trade School Award",11,"Annapolis Valley Regional School Board","2013/14"
"229","Community College/Trade School Award",12,"Annapolis Valley Regional School Board","2014/15"
"230","Community College/Trade School Award",10,"Annapolis Valley Regional School Board","2015/16"
"231","Community College/Trade School Award",5,"Annapolis Valley Regional School Board","2016/17"
"232","Performing Arts*",0,"Annapolis Valley Regional School Board","1996/97"
"233","Performing Arts*",0,"Annapolis Valley Regional School Board","1997/98"
"234","Performing Arts*",0,"Annapolis Valley Regional School Board","1998/99"
"235","Performing Arts*",0,"Annapolis Valley Regional School Board","1999/00"
"236","Performing Arts*",0,"Annapolis Valley Regional School Board","2000/01"
"237","Performing Arts*",0,"Annapolis Valley Regional School Board","2001/02"
"238","Performing Arts*",0,"Annapolis Valley Regional School Board","2002/03"
"239","Performing Arts*",0,"Annapolis Valley Regional School Board","2003/04"
"240","Performing Arts*",1,"Annapolis Valley Regional School Board","2004/05"
"241","Performing Arts*",0,"Annapolis Valley Regional School Board","2005/06"
"242","Performing Arts*",0,"Annapolis Valley Regional School Board","2006/07"
"243","Performing Arts*",0,"Annapolis Valley Regional School Board","2007/08"
"244","Performing Arts*",0,"Annapolis Valley Regional School Board","2008/09"
"245","Performing Arts*",0,"Annapolis Valley Regional School Board","2009/10"
"246","Performing Arts*",0,"Annapolis Valley Regional School Board","2010/11"
"247","Performing Arts*",0,"Annapolis Valley Regional School Board","2011/12"
"248","Performing Arts*",0,"Annapolis Valley Regional School Board","2012/13"
"249","Performing Arts*",0,"Annapolis Valley Regional School Board","2013/14"
"250","Performing Arts*",0,"Annapolis Valley Regional School Board","2014/15"
"251","Performing Arts*",0,"Annapolis Valley Regional School Board","2015/16"
"252","Performing Arts*",0,"Annapolis Valley Regional School Board","2016/17"
"253","University Entrance",0,"Conseil Scolaire Acadien Provincial","1996/97"
"254","University Entrance",0,"Conseil Scolaire Acadien Provincial","1997/98"
"255","University Entrance",0,"Conseil Scolaire Acadien Provincial","1998/99"
"256","University Entrance",1,"Conseil Scolaire Acadien Provincial","1999/00"
"257","University Entrance",0,"Conseil Scolaire Acadien Provincial","2000/01"
"258","University Entrance",0,"Conseil Scolaire Acadien Provincial","2001/02"
"259","University Entrance",0,"Conseil Scolaire Acadien Provincial","2002/03"
"260","University Entrance",0,"Conseil Scolaire Acadien Provincial","2003/04"
"261","University Entrance",0,"Conseil Scolaire Acadien Provincial","2004/05"
"262","University Entrance",1,"Conseil Scolaire Acadien Provincial","2005/06"
"263","University Entrance",0,"Conseil Scolaire Acadien Provincial","2006/07"
"264","University Entrance",3,"Conseil Scolaire Acadien Provincial","2007/08"
"265","University Entrance",1,"Conseil Scolaire Acadien Provincial","2008/09"
"266","University Entrance",2,"Conseil Scolaire Acadien Provincial","2009/10"
"267","University Entrance",1,"Conseil Scolaire Acadien Provincial","2010/11"
"268","University Entrance",2,"Conseil Scolaire Acadien Provincial","2011/12"
"269","University Entrance",1,"Conseil Scolaire Acadien Provincial","2012/13"
"270","University Entrance",1,"Conseil Scolaire Acadien Provincial","2013/14"
"271","University Entrance",0,"Conseil Scolaire Acadien Provincial","2014/15"
"272","University Entrance",1,"Conseil Scolaire Acadien Provincial","2015/16"
"273","University Entrance",4,"Conseil Scolaire Acadien Provincial","2016/17"
"274","Post-Secondary",0,"Conseil Scolaire Acadien Provincial","1996/97"
"275","Post-Secondary",0,"Conseil Scolaire Acadien Provincial","1997/98"
"276","Post-Secondary",0,"Conseil Scolaire Acadien Provincial","1998/99"
"277","Post-Secondary",0,"Conseil Scolaire Acadien Provincial","1999/00"
"278","Post-Secondary",0,"Conseil Scolaire Acadien Provincial","2000/01"
"279","Post-Secondary",0,"Conseil Scolaire Acadien Provincial","2001/02"
"280","Post-Secondary",0,"Conseil Scolaire Acadien Provincial","2002/03"
"281","Post-Secondary",0,"Conseil Scolaire Acadien Provincial","2003/04"
"282","Post-Secondary",0,"Conseil Scolaire Acadien Provincial","2004/05"
"283","Post-Secondary",0,"Conseil Scolaire Acadien Provincial","2005/06"
"284","Post-Secondary",1,"Conseil Scolaire Acadien Provincial","2006/07"
"285","Post-Secondary",0,"Conseil Scolaire Acadien Provincial","2007/08"
"286","Post-Secondary",2,"Conseil Scolaire Acadien Provincial","2008/09"
"287","Post-Secondary",2,"Conseil Scolaire Acadien Provincial","2009/10"
"288","Post-Secondary",4,"Conseil Scolaire Acadien Provincial","2010/11"
"289","Post-Secondary",3,"Conseil Scolaire Acadien Provincial","2011/12"
"290","Post-Secondary",3,"Conseil Scolaire Acadien Provincial","2012/13"
"291","Post-Secondary",1,"Conseil Scolaire Acadien Provincial","2013/14"
"292","Post-Secondary",3,"Conseil Scolaire Acadien Provincial","2014/15"
"293","Post-Secondary",1,"Conseil Scolaire Acadien Provincial","2015/16"
"294","Post-Secondary",2,"Conseil Scolaire Acadien Provincial","2016/17"
"295","Community College/Trade School Award",0,"Conseil Scolaire Acadien Provincial","1996/97"
"296","Community College/Trade School Award",0,"Conseil Scolaire Acadien Provincial","1997/98"
"297","Community College/Trade School Award",0,"Conseil Scolaire Acadien Provincial","1998/99"
"298","Community College/Trade School Award",0,"Conseil Scolaire Acadien Provincial","1999/00"
"299","Community College/Trade School Award",0,"Conseil Scolaire Acadien Provincial","2000/01"
"300","Community College/Trade School Award",0,"Conseil Scolaire Acadien Provincial","2001/02"
"301","Community College/Trade School Award",0,"Conseil Scolaire Acadien Provincial","2002/03"
"302","Community College/Trade School Award",0,"Conseil Scolaire Acadien Provincial","2003/04"
"303","Community College/Trade School Award",0,"Conseil Scolaire Acadien Provincial","2004/05"
"304","Community College/Trade School Award",0,"Conseil Scolaire Acadien Provincial","2005/06"
"305","Community College/Trade School Award",0,"Conseil Scolaire Acadien Provincial","2006/07"
"306","Community College/Trade School Award",1,"Conseil Scolaire Acadien Provincial","2007/08"
"307","Community College/Trade School Award",1,"Conseil Scolaire Acadien Provincial","2008/09"
"308","Community College/Trade School Award",1,"Conseil Scolaire Acadien Provincial","2009/10"
"309","Community College/Trade School Award",0,"Conseil Scolaire Acadien Provincial","2010/11"
"310","Community College/Trade School Award",1,"Conseil Scolaire Acadien Provincial","2011/12"
"311","Community College/Trade School Award",2,"Conseil Scolaire Acadien Provincial","2012/13"
"312","Community College/Trade School Award",1,"Conseil Scolaire Acadien Provincial","2013/14"
"313","Community College/Trade School Award",1,"Conseil Scolaire Acadien Provincial","2014/15"
"314","Community College/Trade School Award",2,"Conseil Scolaire Acadien Provincial","2015/16"
"315","Community College/Trade School Award",2,"Conseil Scolaire Acadien Provincial","2016/17"
"316","Performing Arts*",0,"Conseil Scolaire Acadien Provincial","1996/97"
"317","Performing Arts*",0,"Conseil Scolaire Acadien Provincial","1997/98"
"318","Performing Arts*",0,"Conseil Scolaire Acadien Provincial","1998/99"
"319","Performing Arts*",0,"Conseil Scolaire Acadien Provincial","1999/00"
"320","Performing Arts*",0,"Conseil Scolaire Acadien Provincial","2000/01"
"321","Performing Arts*",0,"Conseil Scolaire Acadien Provincial","2001/02"
"322","Performing Arts*",0,"Conseil Scolaire Acadien Provincial","2002/03"
"323","Performing Arts*",0,"Conseil Scolaire Acadien Provincial","2003/04"
"324","Performing Arts*",0,"Conseil Scolaire Acadien Provincial","2004/05"
"325","Performing Arts*",0,"Conseil Scolaire Acadien Provincial","2005/06"
"326","Performing Arts*",0,"Conseil Scolaire Acadien Provincial","2006/07"
"327","Performing Arts*",0,"Conseil Scolaire Acadien Provincial","2007/08"
"328","Performing Arts*",0,"Conseil Scolaire Acadien Provincial","2008/09"
"329","Performing Arts*",0,"Conseil Scolaire Acadien Provincial","2009/10"
"330","Performing Arts*",0,"Conseil Scolaire Acadien Provincial","2010/11"
"331","Performing Arts*",0,"Conseil Scolaire Acadien Provincial","2011/12"
"332","Performing Arts*",0,"Conseil Scolaire Acadien Provincial","2012/13"
"333","Performing Arts*",0,"Conseil Scolaire Acadien Provincial","2013/14"
"334","Performing Arts*",0,"Conseil Scolaire Acadien Provincial","2014/15"
"335","Performing Arts*",0,"Conseil Scolaire Acadien Provincial","2015/16"
"336","Performing Arts*",0,"Conseil Scolaire Acadien Provincial","2016/17"
"337","University Entrance",7,"Chignecto-Central Regional School Board","1996/97"
"338","University Entrance",2,"Chignecto-Central Regional School Board","1997/98"
"339","University Entrance",5,"Chignecto-Central Regional School Board","1998/99"
"340","University Entrance",7,"Chignecto-Central Regional School Board","1999/00"
"341","University Entrance",10,"Chignecto-Central Regional School Board","2000/01"
"342","University Entrance",12,"Chignecto-Central Regional School Board","2001/02"
"343","University Entrance",6,"Chignecto-Central Regional School Board","2002/03"
"344","University Entrance",6,"Chignecto-Central Regional School Board","2003/04"
"345","University Entrance",12,"Chignecto-Central Regional School Board","2004/05"
"346","University Entrance",9,"Chignecto-Central Regional School Board","2005/06"
"347","University Entrance",6,"Chignecto-Central Regional School Board","2006/07"
"348","University Entrance",4,"Chignecto-Central Regional School Board","2007/08"
"349","University Entrance",5,"Chignecto-Central Regional School Board","2008/09"
"350","University Entrance",7,"Chignecto-Central Regional School Board","2009/10"
"351","University Entrance",11,"Chignecto-Central Regional School Board","2010/11"
"352","University Entrance",17,"Chignecto-Central Regional School Board","2011/12"
"353","University Entrance",14,"Chignecto-Central Regional School Board","2012/13"
"354","University Entrance",15,"Chignecto-Central Regional School Board","2013/14"
"355","University Entrance",7,"Chignecto-Central Regional School Board","2014/15"
"356","University Entrance",0,"Chignecto-Central Regional School Board","2015/16"
"357","University Entrance",10,"Chignecto-Central Regional School Board","2016/17"
"358","Post-Secondary",1,"Chignecto-Central Regional School Board","1996/97"
"359","Post-Secondary",6,"Chignecto-Central Regional School Board","1997/98"
"360","Post-Secondary",4,"Chignecto-Central Regional School Board","1998/99"
"361","Post-Secondary",8,"Chignecto-Central Regional School Board","1999/00"
"362","Post-Secondary",5,"Chignecto-Central Regional School Board","2000/01"
"363","Post-Secondary",12,"Chignecto-Central Regional School Board","2001/02"
"364","Post-Secondary",16,"Chignecto-Central Regional School Board","2002/03"
"365","Post-Secondary",15,"Chignecto-Central Regional School Board","2003/04"
"366","Post-Secondary",5,"Chignecto-Central Regional School Board","2004/05"
"367","Post-Secondary",13,"Chignecto-Central Regional School Board","2005/06"
"368","Post-Secondary",12,"Chignecto-Central Regional School Board","2006/07"
"369","Post-Secondary",14,"Chignecto-Central Regional School Board","2007/08"
"370","Post-Secondary",8,"Chignecto-Central Regional School Board","2008/09"
"371","Post-Secondary",11,"Chignecto-Central Regional School Board","2009/10"
"372","Post-Secondary",15,"Chignecto-Central Regional School Board","2010/11"
"373","Post-Secondary",17,"Chignecto-Central Regional School Board","2011/12"
"374","Post-Secondary",18,"Chignecto-Central Regional School Board","2012/13"
"375","Post-Secondary",23,"Chignecto-Central Regional School Board","2013/14"
"376","Post-Secondary",27,"Chignecto-Central Regional School Board","2014/15"
"377","Post-Secondary",8,"Chignecto-Central Regional School Board","2015/16"
"378","Post-Secondary",2,"Chignecto-Central Regional School Board","2016/17"
"379","Community College/Trade School Award",5,"Chignecto-Central Regional School Board","1996/97"
"380","Community College/Trade School Award",3,"Chignecto-Central Regional School Board","1997/98"
"381","Community College/Trade School Award",5,"Chignecto-Central Regional School Board","1998/99"
"382","Community College/Trade School Award",11,"Chignecto-Central Regional School Board","1999/00"
"383","Community College/Trade School Award",6,"Chignecto-Central Regional School Board","2000/01"
"384","Community College/Trade School Award",12,"Chignecto-Central Regional School Board","2001/02"
"385","Community College/Trade School Award",11,"Chignecto-Central Regional School Board","2002/03"
"386","Community College/Trade School Award",6,"Chignecto-Central Regional School Board","2003/04"
"387","Community College/Trade School Award",13,"Chignecto-Central Regional School Board","2004/05"
"388","Community College/Trade School Award",15,"Chignecto-Central Regional School Board","2005/06"
"389","Community College/Trade School Award",9,"Chignecto-Central Regional School Board","2006/07"
"390","Community College/Trade School Award",12,"Chignecto-Central Regional School Board","2007/08"
"391","Community College/Trade School Award",24,"Chignecto-Central Regional School Board","2008/09"
"392","Community College/Trade School Award",33,"Chignecto-Central Regional School Board","2009/10"
"393","Community College/Trade School Award",20,"Chignecto-Central Regional School Board","2010/11"
"394","Community College/Trade School Award",15,"Chignecto-Central Regional School Board","2011/12"
"395","Community College/Trade School Award",25,"Chignecto-Central Regional School Board","2012/13"
"396","Community College/Trade School Award",29,"Chignecto-Central Regional School Board","2013/14"
"397","Community College/Trade School Award",21,"Chignecto-Central Regional School Board","2014/15"
"398","Community College/Trade School Award",11,"Chignecto-Central Regional School Board","2015/16"
"399","Community College/Trade School Award",12,"Chignecto-Central Regional School Board","2016/17"
"400","Performing Arts*",0,"Chignecto-Central Regional School Board","1996/97"
"401","Performing Arts*",0,"Chignecto-Central Regional School Board","1997/98"
"402","Performing Arts*",0,"Chignecto-Central Regional School Board","1998/99"
"403","Performing Arts*",0,"Chignecto-Central Regional School Board","1999/00"
"404","Performing Arts*",0,"Chignecto-Central Regional School Board","2000/01"
"405","Performing Arts*",0,"Chignecto-Central Regional School Board","2001/02"
"406","Performing Arts*",0,"Chignecto-Central Regional School Board","2002/03"
"407","Performing Arts*",0,"Chignecto-Central Regional School Board","2003/04"
"408","Performing Arts*",0,"Chignecto-Central Regional School Board","2004/05"
"409","Performing Arts*",0,"Chignecto-Central Regional School Board","2005/06"
"410","Performing Arts*",0,"Chignecto-Central Regional School Board","2006/07"
"411","Performing Arts*",0,"Chignecto-Central Regional School Board","2007/08"
"412","Performing Arts*",0,"Chignecto-Central Regional School Board","2008/09"
"413","Performing Arts*",0,"Chignecto-Central Regional School Board","2009/10"
"414","Performing Arts*",0,"Chignecto-Central Regional School Board","2010/11"
"415","Performing Arts*",0,"Chignecto-Central Regional School Board","2011/12"
"416","Performing Arts*",0,"Chignecto-Central Regional School Board","2012/13"
"417","Performing Arts*",0,"Chignecto-Central Regional School Board","2013/14"
"418","Performing Arts*",1,"Chignecto-Central Regional School Board","2014/15"
"419","Performing Arts*",0,"Chignecto-Central Regional School Board","2015/16"
"420","Performing Arts*",0,"Chignecto-Central Regional School Board","2016/17"
"421","University Entrance",0,"South Shore Regional School Board","1996/97"
"422","University Entrance",0,"South Shore Regional School Board","1997/98"
"423","University Entrance",2,"South Shore Regional School Board","1998/99"
"424","University Entrance",8,"South Shore Regional School Board","1999/00"
"425","University Entrance",1,"South Shore Regional School Board","2000/01"
"426","University Entrance",0,"South Shore Regional School Board","2001/02"
"427","University Entrance",0,"South Shore Regional School Board","2002/03"
"428","University Entrance",1,"South Shore Regional School Board","2003/04"
"429","University Entrance",0,"South Shore Regional School Board","2004/05"
"430","University Entrance",0,"South Shore Regional School Board","2005/06"
"431","University Entrance",0,"South Shore Regional School Board","2006/07"
"432","University Entrance",0,"South Shore Regional School Board","2007/08"
"433","University Entrance",0,"South Shore Regional School Board","2008/09"
"434","University Entrance",0,"South Shore Regional School Board","2009/10"
"435","University Entrance",0,"South Shore Regional School Board","2010/11"
"436","University Entrance",0,"South Shore Regional School Board","2011/12"
"437","University Entrance",3,"South Shore Regional School Board","2012/13"
"438","University Entrance",1,"South Shore Regional School Board","2013/14"
"439","University Entrance",2,"South Shore Regional School Board","2014/15"
"440","University Entrance",1,"South Shore Regional School Board","2015/16"
"441","University Entrance",1,"South Shore Regional School Board","2016/17"
"442","Post-Secondary",0,"South Shore Regional School Board","1996/97"
"443","Post-Secondary",1,"South Shore Regional School Board","1997/98"
"444","Post-Secondary",0,"South Shore Regional School Board","1998/99"
"445","Post-Secondary",8,"South Shore Regional School Board","1999/00"
"446","Post-Secondary",0,"South Shore Regional School Board","2000/01"
"447","Post-Secondary",2,"South Shore Regional School Board","2001/02"
"448","Post-Secondary",1,"South Shore Regional School Board","2002/03"
"449","Post-Secondary",1,"South Shore Regional School Board","2003/04"
"450","Post-Secondary",1,"South Shore Regional School Board","2004/05"
"451","Post-Secondary",1,"South Shore Regional School Board","2005/06"
"452","Post-Secondary",1,"South Shore Regional School Board","2006/07"
"453","Post-Secondary",1,"South Shore Regional School Board","2007/08"
"454","Post-Secondary",2,"South Shore Regional School Board","2008/09"
"455","Post-Secondary",0,"South Shore Regional School Board","2009/10"
"456","Post-Secondary",1,"South Shore Regional School Board","2010/11"
"457","Post-Secondary",1,"South Shore Regional School Board","2011/12"
"458","Post-Secondary",2,"South Shore Regional School Board","2012/13"
"459","Post-Secondary",3,"South Shore Regional School Board","2013/14"
"460","Post-Secondary",4,"South Shore Regional School Board","2014/15"
"461","Post-Secondary",4,"South Shore Regional School Board","2015/16"
"462","Post-Secondary",3,"South Shore Regional School Board","2016/17"
"463","Community College/Trade School Award",1,"South Shore Regional School Board","1996/97"
"464","Community College/Trade School Award",0,"South Shore Regional School Board","1997/98"
"465","Community College/Trade School Award",1,"South Shore Regional School Board","1998/99"
"466","Community College/Trade School Award",2,"South Shore Regional School Board","1999/00"
"467","Community College/Trade School Award",1,"South Shore Regional School Board","2000/01"
"468","Community College/Trade School Award",0,"South Shore Regional School Board","2001/02"
"469","Community College/Trade School Award",2,"South Shore Regional School Board","2002/03"
"470","Community College/Trade School Award",0,"South Shore Regional School Board","2003/04"
"471","Community College/Trade School Award",1,"South Shore Regional School Board","2004/05"
"472","Community College/Trade School Award",1,"South Shore Regional School Board","2005/06"
"473","Community College/Trade School Award",0,"South Shore Regional School Board","2006/07"
"474","Community College/Trade School Award",1,"South Shore Regional School Board","2007/08"
"475","Community College/Trade School Award",1,"South Shore Regional School Board","2008/09"
"476","Community College/Trade School Award",1,"South Shore Regional School Board","2009/10"
"477","Community College/Trade School Award",1,"South Shore Regional School Board","2010/11"
"478","Community College/Trade School Award",1,"South Shore Regional School Board","2011/12"
"479","Community College/Trade School Award",0,"South Shore Regional School Board","2012/13"
"480","Community College/Trade School Award",1,"South Shore Regional School Board","2013/14"
"481","Community College/Trade School Award",0,"South Shore Regional School Board","2014/15"
"482","Community College/Trade School Award",0,"South Shore Regional School Board","2015/16"
"483","Community College/Trade School Award",0,"South Shore Regional School Board","2016/17"
"484","Performing Arts*",0,"South Shore Regional School Board","1996/97"
"485","Performing Arts*",0,"South Shore Regional School Board","1997/98"
"486","Performing Arts*",0,"South Shore Regional School Board","1998/99"
"487","Performing Arts*",0,"South Shore Regional School Board","1999/00"
"488","Performing Arts*",0,"South Shore Regional School Board","2000/01"
"489","Performing Arts*",0,"South Shore Regional School Board","2001/02"
"490","Performing Arts*",0,"South Shore Regional School Board","2002/03"
"491","Performing Arts*",0,"South Shore Regional School Board","2003/04"
"492","Performing Arts*",0,"South Shore Regional School Board","2004/05"
"493","Performing Arts*",0,"South Shore Regional School Board","2005/06"
"494","Performing Arts*",0,"South Shore Regional School Board","2006/07"
"495","Performing Arts*",0,"South Shore Regional School Board","2007/08"
"496","Performing Arts*",0,"South Shore Regional School Board","2008/09"
"497","Performing Arts*",0,"South Shore Regional School Board","2009/10"
"498","Performing Arts*",0,"South Shore Regional School Board","2010/11"
"499","Performing Arts*",0,"South Shore Regional School Board","2011/12"
"500","Performing Arts*",0,"South Shore Regional School Board","2012/13"
"501","Performing Arts*",0,"South Shore Regional School Board","2013/14"
"502","Performing Arts*",0,"South Shore Regional School Board","2014/15"
"503","Performing Arts*",0,"South Shore Regional School Board","2015/16"
"504","Performing Arts*",0,"South Shore Regional School Board","2016/17"
"505","University Entrance",0,"Tri-County Regional School Board","1996/97"
"506","University Entrance",2,"Tri-County Regional School Board","1997/98"
"507","University Entrance",0,"Tri-County Regional School Board","1998/99"
"508","University Entrance",3,"Tri-County Regional School Board","1999/00"
"509","University Entrance",3,"Tri-County Regional School Board","2000/01"
"510","University Entrance",1,"Tri-County Regional School Board","2001/02"
"511","University Entrance",2,"Tri-County Regional School Board","2002/03"
"512","University Entrance",3,"Tri-County Regional School Board","2003/04"
"513","University Entrance",3,"Tri-County Regional School Board","2004/05"
"514","University Entrance",1,"Tri-County Regional School Board","2005/06"
"515","University Entrance",4,"Tri-County Regional School Board","2006/07"
"516","University Entrance",3,"Tri-County Regional School Board","2007/08"
"517","University Entrance",4,"Tri-County Regional School Board","2008/09"
"518","University Entrance",5,"Tri-County Regional School Board","2009/10"
"519","University Entrance",1,"Tri-County Regional School Board","2010/11"
"520","University Entrance",4,"Tri-County Regional School Board","2011/12"
"521","University Entrance",9,"Tri-County Regional School Board","2012/13"
"522","University Entrance",6,"Tri-County Regional School Board","2013/14"
"523","University Entrance",5,"Tri-County Regional School Board","2014/15"
"524","University Entrance",5,"Tri-County Regional School Board","2015/16"
"525","University Entrance",3,"Tri-County Regional School Board","2016/17"
"526","Post-Secondary",3,"Tri-County Regional School Board","1996/97"
"527","Post-Secondary",1,"Tri-County Regional School Board","1997/98"
"528","Post-Secondary",4,"Tri-County Regional School Board","1998/99"
"529","Post-Secondary",3,"Tri-County Regional School Board","1999/00"
"530","Post-Secondary",4,"Tri-County Regional School Board","2000/01"
"531","Post-Secondary",5,"Tri-County Regional School Board","2001/02"
"532","Post-Secondary",5,"Tri-County Regional School Board","2002/03"
"533","Post-Secondary",4,"Tri-County Regional School Board","2003/04"
"534","Post-Secondary",2,"Tri-County Regional School Board","2004/05"
"535","Post-Secondary",3,"Tri-County Regional School Board","2005/06"
"536","Post-Secondary",2,"Tri-County Regional School Board","2006/07"
"537","Post-Secondary",5,"Tri-County Regional School Board","2007/08"
"538","Post-Secondary",6,"Tri-County Regional School Board","2008/09"
"539","Post-Secondary",7,"Tri-County Regional School Board","2009/10"
"540","Post-Secondary",8,"Tri-County Regional School Board","2010/11"
"541","Post-Secondary",5,"Tri-County Regional School Board","2011/12"
"542","Post-Secondary",6,"Tri-County Regional School Board","2012/13"
"543","Post-Secondary",9,"Tri-County Regional School Board","2013/14"
"544","Post-Secondary",8,"Tri-County Regional School Board","2014/15"
"545","Post-Secondary",4,"Tri-County Regional School Board","2015/16"
"546","Post-Secondary",6,"Tri-County Regional School Board","2016/17"
"547","Community College/Trade School Award",1,"Tri-County Regional School Board","1996/97"
"548","Community College/Trade School Award",1,"Tri-County Regional School Board","1997/98"
"549","Community College/Trade School Award",4,"Tri-County Regional School Board","1998/99"
"550","Community College/Trade School Award",15,"Tri-County Regional School Board","1999/00"
"551","Community College/Trade School Award",4,"Tri-County Regional School Board","2000/01"
"552","Community College/Trade School Award",2,"Tri-County Regional School Board","2001/02"
"553","Community College/Trade School Award",8,"Tri-County Regional School Board","2002/03"
"554","Community College/Trade School Award",6,"Tri-County Regional School Board","2003/04"
"555","Community College/Trade School Award",7,"Tri-County Regional School Board","2004/05"
"556","Community College/Trade School Award",5,"Tri-County Regional School Board","2005/06"
"557","Community College/Trade School Award",6,"Tri-County Regional School Board","2006/07"
"558","Community College/Trade School Award",1,"Tri-County Regional School Board","2007/08"
"559","Community College/Trade School Award",10,"Tri-County Regional School Board","2008/09"
"560","Community College/Trade School Award",5,"Tri-County Regional School Board","2009/10"
"561","Community College/Trade School Award",8,"Tri-County Regional School Board","2010/11"
"562","Community College/Trade School Award",7,"Tri-County Regional School Board","2011/12"
"563","Community College/Trade School Award",7,"Tri-County Regional School Board","2012/13"
"564","Community College/Trade School Award",10,"Tri-County Regional School Board","2013/14"
"565","Community College/Trade School Award",8,"Tri-County Regional School Board","2014/15"
"566","Community College/Trade School Award",8,"Tri-County Regional School Board","2015/16"
"567","Community College/Trade School Award",4,"Tri-County Regional School Board","2016/17"
"568","Performing Arts*",0,"Tri-County Regional School Board","1996/97"
"569","Performing Arts*",0,"Tri-County Regional School Board","1997/98"
"570","Performing Arts*",0,"Tri-County Regional School Board","1998/99"
"571","Performing Arts*",0,"Tri-County Regional School Board","1999/00"
"572","Performing Arts*",0,"Tri-County Regional School Board","2000/01"
"573","Performing Arts*",0,"Tri-County Regional School Board","2001/02"
"574","Performing Arts*",0,"Tri-County Regional School Board","2002/03"
"575","Performing Arts*",0,"Tri-County Regional School Board","2003/04"
"576","Performing Arts*",0,"Tri-County Regional School Board","2004/05"
"577","Performing Arts*",0,"Tri-County Regional School Board","2005/06"
"578","Performing Arts*",0,"Tri-County Regional School Board","2006/07"
"579","Performing Arts*",0,"Tri-County Regional School Board","2007/08"
"580","Performing Arts*",0,"Tri-County Regional School Board","2008/09"
"581","Performing Arts*",0,"Tri-County Regional School Board","2009/10"
"582","Performing Arts*",0,"Tri-County Regional School Board","2010/11"
"583","Performing Arts*",0,"Tri-County Regional School Board","2011/12"
"584","Performing Arts*",0,"Tri-County Regional School Board","2012/13"
"585","Performing Arts*",0,"Tri-County Regional School Board","2013/14"
"586","Performing Arts*",0,"Tri-County Regional School Board","2014/15"
"587","Performing Arts*",0,"Tri-County Regional School Board","2015/16"
"588","Performing Arts*",0,"Tri-County Regional School Board","2016/17"
"589","University Entrance",0,"Cape Breton-Victoria Regional School Board","1996/97"
"590","University Entrance",2,"Cape Breton-Victoria Regional School Board","1997/98"
"591","University Entrance",3,"Cape Breton-Victoria Regional School Board","1998/99"
"592","University Entrance",5,"Cape Breton-Victoria Regional School Board","1999/00"
"593","University Entrance",2,"Cape Breton-Victoria Regional School Board","2000/01"
"594","University Entrance",2,"Cape Breton-Victoria Regional School Board","2001/02"
"595","University Entrance",3,"Cape Breton-Victoria Regional School Board","2002/03"
"596","University Entrance",6,"Cape Breton-Victoria Regional School Board","2003/04"
"597","University Entrance",4,"Cape Breton-Victoria Regional School Board","2004/05"
"598","Provincial",13,"Teacher Education Award","2010/11"
"599","University Entrance",5,"Cape Breton-Victoria Regional School Board","2005/06"
"600","University Entrance",7,"Cape Breton-Victoria Regional School Board","2006/07"
"601","University Entrance",4,"Cape Breton-Victoria Regional School Board","2007/08"
"602","University Entrance",3,"Cape Breton-Victoria Regional School Board","2008/09"
"603","University Entrance",10,"Cape Breton-Victoria Regional School Board","2009/10"
"604","University Entrance",4,"Cape Breton-Victoria Regional School Board","2010/11"
"605","University Entrance",7,"Cape Breton-Victoria Regional School Board","2011/12"
"606","University Entrance",7,"Cape Breton-Victoria Regional School Board","2012/13"
"607","University Entrance",6,"Cape Breton-Victoria Regional School Board","2013/14"
"608","University Entrance",6,"Cape Breton-Victoria Regional School Board","2014/15"
"609","University Entrance",8,"Cape Breton-Victoria Regional School Board","2015/16"
"610","University Entrance",7,"Cape Breton-Victoria Regional School Board","2016/17"
"611","Post-Secondary",1,"Cape Breton-Victoria Regional School Board","1996/97"
"612","Post-Secondary",0,"Cape Breton-Victoria Regional School Board","1997/98"
"613","Post-Secondary",2,"Cape Breton-Victoria Regional School Board","1998/99"
"614","Post-Secondary",6,"Cape Breton-Victoria Regional School Board","1999/00"
"615","Post-Secondary",6,"Cape Breton-Victoria Regional School Board","2000/01"
"616","Post-Secondary",10,"Cape Breton-Victoria Regional School Board","2001/02"
"617","Post-Secondary",5,"Cape Breton-Victoria Regional School Board","2002/03"
"618","Post-Secondary",5,"Cape Breton-Victoria Regional School Board","2003/04"
"619","Post-Secondary",9,"Cape Breton-Victoria Regional School Board","2004/05"
"620","Post-Secondary",11,"Cape Breton-Victoria Regional School Board","2005/06"
"621","Post-Secondary",9,"Cape Breton-Victoria Regional School Board","2006/07"
"622","Post-Secondary",12,"Cape Breton-Victoria Regional School Board","2007/08"
"623","Post-Secondary",12,"Cape Breton-Victoria Regional School Board","2008/09"
"624","Post-Secondary",5,"Cape Breton-Victoria Regional School Board","2009/10"
"625","Post-Secondary",7,"Cape Breton-Victoria Regional School Board","2010/11"
"626","Post-Secondary",5,"Cape Breton-Victoria Regional School Board","2011/12"
"627","Post-Secondary",6,"Cape Breton-Victoria Regional School Board","2012/13"
"628","Post-Secondary",8,"Cape Breton-Victoria Regional School Board","2013/14"
"629","Post-Secondary",8,"Cape Breton-Victoria Regional School Board","2014/15"
"630","Post-Secondary",7,"Cape Breton-Victoria Regional School Board","2015/16"
"631","Post-Secondary",12,"Cape Breton-Victoria Regional School Board","2016/17"
"632","Community College/Trade School Award",2,"Cape Breton-Victoria Regional School Board","1996/97"
"633","Community College/Trade School Award",1,"Cape Breton-Victoria Regional School Board","1997/98"
"634","Community College/Trade School Award",10,"Cape Breton-Victoria Regional School Board","1998/99"
"635","Community College/Trade School Award",11,"Cape Breton-Victoria Regional School Board","1999/00"
"636","Community College/Trade School Award",6,"Cape Breton-Victoria Regional School Board","2000/01"
"637","Community College/Trade School Award",13,"Cape Breton-Victoria Regional School Board","2001/02"
"638","Community College/Trade School Award",13,"Cape Breton-Victoria Regional School Board","2002/03"
"639","Community College/Trade School Award",1,"Cape Breton-Victoria Regional School Board","2003/04"
"640","Provincial",18,"Teacher Education Award","2011/12"
"641","Community College/Trade School Award",14,"Cape Breton-Victoria Regional School Board","2004/05"
"642","Community College/Trade School Award",3,"Cape Breton-Victoria Regional School Board","2005/06"
"643","Community College/Trade School Award",7,"Cape Breton-Victoria Regional School Board","2006/07"
"644","Community College/Trade School Award",6,"Cape Breton-Victoria Regional School Board","2007/08"
"645","Community College/Trade School Award",8,"Cape Breton-Victoria Regional School Board","2008/09"
"646","Community College/Trade School Award",7,"Cape Breton-Victoria Regional School Board","2009/10"
"647","Community College/Trade School Award",17,"Cape Breton-Victoria Regional School Board","2010/11"
"648","Community College/Trade School Award",9,"Cape Breton-Victoria Regional School Board","2011/12"
"649","Community College/Trade School Award",18,"Cape Breton-Victoria Regional School Board","2012/13"
"650","Community College/Trade School Award",12,"Cape Breton-Victoria Regional School Board","2013/14"
"651","Community College/Trade School Award",11,"Cape Breton-Victoria Regional School Board","2014/15"
"652","Community College/Trade School Award",3,"Cape Breton-Victoria Regional School Board","2015/16"
"653","Community College/Trade School Award",17,"Cape Breton-Victoria Regional School Board","2016/17"
"654","Performing Arts*",0,"Cape Breton-Victoria Regional School Board","1996/97"
"655","Performing Arts*",0,"Cape Breton-Victoria Regional School Board","1997/98"
"656","Performing Arts*",0,"Cape Breton-Victoria Regional School Board","1998/99"
"657","Performing Arts*",0,"Cape Breton-Victoria Regional School Board","1999/00"
"658","Performing Arts*",0,"Cape Breton-Victoria Regional School Board","2000/01"
"659","Performing Arts*",0,"Cape Breton-Victoria Regional School Board","2001/02"
"660","Performing Arts*",0,"Cape Breton-Victoria Regional School Board","2002/03"
"661","Performing Arts*",0,"Cape Breton-Victoria Regional School Board","2003/04"
"662","Performing Arts*",0,"Cape Breton-Victoria Regional School Board","2004/05"
"663","Performing Arts*",0,"Cape Breton-Victoria Regional School Board","2005/06"
"664","Performing Arts*",0,"Cape Breton-Victoria Regional School Board","2006/07"
"665","Performing Arts*",0,"Cape Breton-Victoria Regional School Board","2007/08"
"666","Performing Arts*",0,"Cape Breton-Victoria Regional School Board","2008/09"
"667","Performing Arts*",0,"Cape Breton-Victoria Regional School Board","2009/10"
"668","Performing Arts*",0,"Cape Breton-Victoria Regional School Board","2010/11"
"669","Performing Arts*",0,"Cape Breton-Victoria Regional School Board","2011/12"
"670","Performing Arts*",0,"Cape Breton-Victoria Regional School Board","2012/13"
"671","Performing Arts*",0,"Cape Breton-Victoria Regional School Board","2013/14"
"672","Performing Arts*",0,"Cape Breton-Victoria Regional School Board","2014/15"
"673","Performing Arts*",0,"Cape Breton-Victoria Regional School Board","2015/16"
"674","Performing Arts*",0,"Cape Breton-Victoria Regional School Board","2016/17"
"675","Post-Secondary",0,"Adult High School / NSCC ALP Program","1996/97"
"676","Post-Secondary",0,"Adult High School / NSCC ALP Program","1997/98"
"677","Post-Secondary",0,"Adult High School / NSCC ALP Program","1998/99"
"678","Post-Secondary",0,"Adult High School / NSCC ALP Program","1999/00"
"679","Post-Secondary",0,"Adult High School / NSCC ALP Program","2000/01"
"680","Post-Secondary",0,"Adult High School / NSCC ALP Program","2001/02"
"681","Post-Secondary",0,"Adult High School / NSCC ALP Program","2002/03"
"682","Post-Secondary",2,"Adult High School / NSCC ALP Program","2003/04"
"683","Post-Secondary",2,"Adult High School / NSCC ALP Program","2004/05"
"684","Post-Secondary",1,"Adult High School / NSCC ALP Program","2005/06"
"685","Post-Secondary",0,"Adult High School / NSCC ALP Program","2006/07"
"686","Post-Secondary",1,"Adult High School / NSCC ALP Program","2007/08"
"687","Post-Secondary",3,"Adult High School / NSCC ALP Program","2008/09"
"688","Post-Secondary",2,"Adult High School / NSCC ALP Program","2009/10"
"689","Post-Secondary",3,"Adult High School / NSCC ALP Program","2010/11"
"690","Post-Secondary",6,"Adult High School / NSCC ALP Program","2011/12"
"691","Post-Secondary",6,"Adult High School / NSCC ALP Program","2012/13"
"692","Post-Secondary",3,"Adult High School / NSCC ALP Program","2013/14"
"693","Post-Secondary",2,"Adult High School / NSCC ALP Program","2014/15"
"694","Post-Secondary",2,"Adult High School / NSCC ALP Program","2015/16"
"695","Post-Secondary",2,"Adult High School / NSCC ALP Program","2016/17"
"696","Community College/Trade School Award",0,"Adult High School / NSCC ALP Program","1996/97"
"697","Community College/Trade School Award",0,"Adult High School / NSCC ALP Program","1997/98"
"698","Community College/Trade School Award",0,"Adult High School / NSCC ALP Program","1998/99"
"699","Community College/Trade School Award",0,"Adult High School / NSCC ALP Program","1999/00"
"700","Community College/Trade School Award",0,"Adult High School / NSCC ALP Program","2000/01"
"701","Community College/Trade School Award",0,"Adult High School / NSCC ALP Program","2001/02"
"702","Community College/Trade School Award",1,"Adult High School / NSCC ALP Program","2002/03"
"703","Community College/Trade School Award",1,"Adult High School / NSCC ALP Program","2003/04"
"704","Community College/Trade School Award",2,"Adult High School / NSCC ALP Program","2004/05"
"705","Community College/Trade School Award",4,"Adult High School / NSCC ALP Program","2005/06"
"706","Community College/Trade School Award",11,"Adult High School / NSCC ALP Program","2006/07"
"707","Community College/Trade School Award",14,"Adult High School / NSCC ALP Program","2007/08"
"708","Community College/Trade School Award",23,"Adult High School / NSCC ALP Program","2008/09"
"709","Community College/Trade School Award",30,"Adult High School / NSCC ALP Program","2009/10"
"710","Community College/Trade School Award",18,"Adult High School / NSCC ALP Program","2010/11"
"711","Community College/Trade School Award",20,"Adult High School / NSCC ALP Program","2011/12"
"712","Community College/Trade School Award",26,"Adult High School / NSCC ALP Program","2012/13"
"713","Community College/Trade School Award",27,"Adult High School / NSCC ALP Program","2013/14"
"714","Community College/Trade School Award",30,"Adult High School / NSCC ALP Program","2014/15"
"715","Community College/Trade School Award",15,"Adult High School / NSCC ALP Program","2015/16"
"716","Community College/Trade School Award",14,"Adult High School / NSCC ALP Program","2016/17"
"717","University Entrance",0,"Private / Independent School","1996/97"
"718","University Entrance",0,"Private / Independent School","1997/98"
"719","University Entrance",0,"Private / Independent School","1998/99"
"720","University Entrance",0,"Private / Independent School","1999/00"
"721","University Entrance",0,"Private / Independent School","2000/01"
"722","University Entrance",0,"Private / Independent School","2001/02"
"723","University Entrance",3,"Private / Independent School","2002/03"
"724","University Entrance",1,"Private / Independent School","2003/04"
"725","University Entrance",0,"Private / Independent School","2004/05"
"726","University Entrance",2,"Private / Independent School","2005/06"
"727","University Entrance",3,"Private / Independent School","2006/07"
"728","University Entrance",2,"Private / Independent School","2007/08"
"729","University Entrance",2,"Private / Independent School","2008/09"
"730","University Entrance",3,"Private / Independent School","2009/10"
"731","University Entrance",2,"Private / Independent School","2010/11"
"732","University Entrance",2,"Private / Independent School","2011/12"
"733","University Entrance",3,"Private / Independent School","2012/13"
"734","University Entrance",3,"Private / Independent School","2013/14"
"735","University Entrance",3,"Private / Independent School","2014/15"
"736","University Entrance",8,"Private / Independent School","2015/16"
"737","University Entrance",15,"Private / Independent School","2016/17"
"738","Post-Secondary",0,"Private / Independent School","1996/97"
"739","Post-Secondary",0,"Private / Independent School","1997/98"
"740","Post-Secondary",0,"Private / Independent School","1998/99"
"741","Post-Secondary",0,"Private / Independent School","1999/00"
"742","Post-Secondary",0,"Private / Independent School","2000/01"
"743","Post-Secondary",0,"Private / Independent School","2001/02"
"744","Post-Secondary",0,"Private / Independent School","2002/03"
"745","Post-Secondary",0,"Private / Independent School","2003/04"
"746","Post-Secondary",1,"Private / Independent School","2004/05"
"747","Post-Secondary",2,"Private / Independent School","2005/06"
"748","Post-Secondary",2,"Private / Independent School","2006/07"
"749","Post-Secondary",5,"Private / Independent School","2007/08"
"750","Post-Secondary",3,"Private / Independent School","2008/09"
"751","Post-Secondary",4,"Private / Independent School","2009/10"
"752","Post-Secondary",4,"Private / Independent School","2010/11"
"753","Post-Secondary",2,"Private / Independent School","2011/12"
"754","Post-Secondary",2,"Private / Independent School","2012/13"
"755","Post-Secondary",4,"Private / Independent School","2013/14"
"756","Post-Secondary",8,"Private / Independent School","2014/15"
"757","Post-Secondary",3,"Private / Independent School","2015/16"
"758","Post-Secondary",5,"Private / Independent School","2016/17"
"759","Community College/Trade School Award",0,"Private / Independent School","1996/97"
"760","Community College/Trade School Award",0,"Private / Independent School","1997/98"
"761","Community College/Trade School Award",0,"Private / Independent School","1998/99"
"762","Community College/Trade School Award",0,"Private / Independent School","1999/00"
"763","Community College/Trade School Award",0,"Private / Independent School","2000/01"
"764","Community College/Trade School Award",0,"Private / Independent School","2001/02"
"765","Community College/Trade School Award",0,"Private / Independent School","2002/03"
"766","Community College/Trade School Award",0,"Private / Independent School","2003/04"
"767","Community College/Trade School Award",1,"Private / Independent School","2004/05"
"768","Community College/Trade School Award",0,"Private / Independent School","2005/06"
"769","Community College/Trade School Award",1,"Private / Independent School","2006/07"
"770","Community College/Trade School Award",0,"Private / Independent School","2007/08"
"771","Community College/Trade School Award",1,"Private / Independent School","2008/09"
"772","Community College/Trade School Award",0,"Private / Independent School","2009/10"
"773","Community College/Trade School Award",0,"Private / Independent School","2010/11"
"774","Community College/Trade School Award",0,"Private / Independent School","2011/12"
"775","Community College/Trade School Award",0,"Private / Independent School","2012/13"
"776","Community College/Trade School Award",1,"Private / Independent School","2013/14"
"777","Community College/Trade School Award",0,"Private / Independent School","2014/15"
"778","Community College/Trade School Award",0,"Private / Independent School","2015/16"
"779","Community College/Trade School Award",1,"Private / Independent School","2016/17"
"780","Provincial",2,"Science Profession Award","1996/97"
"781","Provincial",4,"Science Profession Award","1997/98"
"782","Provincial",6,"Science Profession Award","1998/99"
"783","Provincial",6,"Science Profession Award","1999/00"
"784","Provincial",7,"Science Profession Award","2000/01"
"785","Provincial",7,"Science Profession Award","2001/02"
"786","Provincial",10,"Science Profession Award","2002/03"
"787","Provincial",9,"Science Profession Award","2003/04"
"788","Provincial",8,"Science Profession Award","2004/05"
"789","Provincial",7,"Science Profession Award","2005/06"
"790","Provincial",11,"Science Profession Award","2006/07"
"791","Provincial",9,"Science Profession Award","2007/08"
"792","Provincial",12,"Science Profession Award","2008/09"
"793","Provincial",10,"Science Profession Award","2009/10"
"794","Provincial",11,"Science Profession Award","2010/11"
"795","Provincial",8,"Science Profession Award","2011/12"
"796","Provincial",11,"Science Profession Award","2012/13"
"797","Provincial",12,"Science Profession Award","2013/14"
"798","Provincial",18,"Science Profession Award","2014/15"
"799","Provincial",25,"Science Profession Award","2015/16"
"800","Provincial",22,"Science Profession Award","2016/17"
"801","Provincial",6,"Teacher Education Award","1996/97"
"802","Provincial",11,"Teacher Education Award","1997/98"
"803","Provincial",24,"Teacher Education Award","1998/99"
"804","Provincial",19,"Teacher Education Award","1999/00"
"805","Provincial",17,"Teacher Education Award","2000/01"
"806","Provincial",12,"Teacher Education Award","2001/02"
"807","Provincial",15,"Teacher Education Award","2002/03"
"808","Provincial",16,"Teacher Education Award","2003/04"
"809","Provincial",14,"Teacher Education Award","2004/05"
"810","Provincial",16,"Teacher Education Award","2005/06"
"811","Provincial",12,"Teacher Education Award","2006/07"
"812","Provincial",12,"Teacher Education Award","2007/08"
"813","Provincial",14,"Teacher Education Award","2008/09"
"814","Provincial",9,"Teacher Education Award","2009/10"
"815","Provincial",13,"Teacher Education Award","2012/13"
"816","Provincial",6,"Teacher Education Award","2013/14"
"817","Provincial",9,"Teacher Education Award","2014/15"
"818","Provincial",12,"Teacher Education Award","2015/16"
"819","Provincial",8,"Teacher Education Award","2016/17"
"820","Provincial",0,"Short-Term Job Training Grant**","1996/97"
"821","Provincial",0,"Short-Term Job Training Grant**","1997/98"
"822","Provincial",0,"Short-Term Job Training Grant**","1998/99"
"823","Provincial",0,"Short-Term Job Training Grant**","1999/00"
"824","Provincial",0,"Short-Term Job Training Grant**","2000/01"
"825","Provincial",0,"Short-Term Job Training Grant**","2001/02"
"826","Provincial",0,"Short-Term Job Training Grant**","2002/03"
"827","Provincial",0,"Short-Term Job Training Grant**","2003/04"
"828","Provincial",0,"Short-Term Job Training Grant**","2004/05"
"829","Provincial",1,"Short-Term Job Training Grant**","2005/06"
"830","Provincial",20,"Short-Term Job Training Grant**","2006/07"
"831","Provincial",42,"Short-Term Job Training Grant**","2007/08"
"832","Provincial",36,"Short-Term Job Training Grant**","2008/09"
"833","Provincial",8,"Short-Term Job Training Grant**","2009/10"
"834","Provincial",24,"Short-Term Job Training Grant**","2010/11"
"835","Provincial",17,"Short-Term Job Training Grant**","2011/12"
"836","Provincial",11,"Short-Term Job Training Grant**","2012/13"
"837","Provincial",21,"Short-Term Job Training Grant**","2013/14"
"838","Provincial",21,"Short-Term Job Training Grant**","2014/15"
"839","Provincial",0,"Short-Term Job Training Grant**","2015/16"
"840","Provincial",0,"Short-Term Job Training Grant**","2016/17"
