"","school","school_board"
"1","Annapolis West Education Centre","Annapolis Valley Regional School Board"
"2","Avon View High School","Annapolis Valley Regional School Board"
"3","Bridgetown Regional High School","Annapolis Valley Regional School Board"
"4","Central Kings Rural High School","Annapolis Valley Regional School Board"
"5","Horton High School","Annapolis Valley Regional School Board"
"6","Kings County Adult High School","Annapolis Valley Regional School Board"
"7","Lawrencetown Education Centre","Annapolis Valley Regional School Board"
"8","Middleton Regional High School","Annapolis Valley Regional School Board"
"9","Northeast Kings Education Centre","Annapolis Valley Regional School Board"
"10","West Kings District High School","Annapolis Valley Regional School Board"
"11","Windsor Adult High School","Annapolis Valley Regional School Board"
"12","Baddeck Academy","Cape Breton Victoria Regional School Board"
"13","Breton Education Centre","Cape Breton Victoria Regional School Board"
"14","Cabot Education Centre","Cape Breton Victoria Regional School Board"
"15","Glace Bay High","Cape Breton Victoria Regional School Board"
"16","Memorial Composite High School","Cape Breton Victoria Regional School Board"
"17","Rankin School of the Narrows","Cape Breton Victoria Regional School Board"
"18","Riverview High School","Cape Breton Victoria Regional School Board"
"19","Sydney Academy","Cape Breton Victoria Regional School Board"
"20","Advocate District School","Chignecto Central Regional School Board"
"21","Amherst Regional High","Chignecto Central Regional School Board"
"22","Cobequid Educational Centre","Chignecto Central Regional School Board"
"23","Hants East Rural High School","Chignecto Central Regional School Board"
"24","Hants North Rural High School","Chignecto Central Regional School Board"
"25","North Colchester High","Chignecto Central Regional School Board"
"26","North Nova Education Centre","Chignecto Central Regional School Board"
"27","Northumberland Regional High School","Chignecto Central Regional School Board"
"28","Oxford Regional Education Centre","Chignecto Central Regional School Board"
"29","Parrsboro Regional High","Chignecto Central Regional School Board"
"30","Pictou Academy/Dr. Thomas McCulloch School","Chignecto Central Regional School Board"
"31","Pugwash District High School","Chignecto Central Regional School Board"
"32","River Hebert District School","Chignecto Central Regional School Board"
"33","South Colchester Academy","Chignecto Central Regional School Board"
"34","Springhill Junior-Senior High School","Chignecto Central Regional School Board"
"35","Centre Scolaire de la Rive-Sud","Conseil scolaire acadien provincial"
"36","Centre scolaire Étoile de l'Acadie","Conseil scolaire acadien provincial"
"37","École Beau-Port","Conseil scolaire acadien provincial"
"38","École NDA","Conseil scolaire acadien provincial"
"39","École Rose-des-Vents","Conseil scolaire acadien provincial"
"40","École acadienne de Pomquet","Conseil scolaire acadien provincial"
"41","École acadienne de Truro","Conseil scolaire acadien provincial"
"42","École secondaire de Clare","Conseil scolaire acadien provincial"
"43","École secondaire de Par-en-Bas","Conseil scolaire acadien provincial"
"44","École secondaire du Sommet","Conseil scolaire acadien provincial"
"45","Auburn Drive High","Halifax Regional School Board"
"46","Bedford and Forsyth Education Centres","Halifax Regional School Board"
"47","Charles P Allen High","Halifax Regional School Board"
"48","Citadel High","Halifax Regional School Board"
"49","Cole Harbour District High","Halifax Regional School Board"
"50","Dartmouth High","Halifax Regional School Board"
"51","Duncan MacMillan High","Halifax Regional School Board"
"52","Eastern Shore District High","Halifax Regional School Board"
"53","Halifax West High","Halifax Regional School Board"
"54","J L Ilsley High","Halifax Regional School Board"
"55","Lockview High","Halifax Regional School Board"
"56","Millwood High","Halifax Regional School Board"
"57","Musquodoboit Rural High","Halifax Regional School Board"
"58","Prince Andrew High","Halifax Regional School Board"
"59","Sackville High","Halifax Regional School Board"
"60","Sir John A Macdonald High","Halifax Regional School Board"
"61","Bridgewater Junior Senior High School","South Shore Regional School Board"
"62","Forest Heights Community School","South Shore Regional School Board"
"63","Liverpool Regional High School","South Shore Regional School Board"
"64","New Germany Rural High School","South Shore Regional School Board"
"65","North Queens Community School","South Shore Regional School Board"
"66","Park View Education Centre","South Shore Regional School Board"
"67","SSRSB Adult High School","South Shore Regional School Board"
"68","SSRSB Alternate Programs","South Shore Regional School Board"
"69","Cape Breton Highlands Education Centre/Academy","Strait Regional School Board"
"70","Chedabucto Ed Centre / Guysborough Academy","Strait Regional School Board"
"71","Dalbrae Academy","Strait Regional School Board"
"72","Dr John Hugh Gillis Regional High","Strait Regional School Board"
"73","East Antigonish Education Centre/Academy","Strait Regional School Board"
"74","Fanning Education Centre/Canso Academy","Strait Regional School Board"
"75","Inverness Education Centre/Academy","Strait Regional School Board"
"76","Richmond Education Centre/Academy","Strait Regional School Board"
"77","St. Mary's Education Centre/Academy","Strait Regional School Board"
"78","Strait Area Education and Recreation Centre","Strait Regional School Board"
"79","Barrington Municipal High School","Tri-County Regional School Board"
"80","Digby Regional High School","Tri-County Regional School Board"
"81","Drumlin Heights Consolidated School","Tri-County Regional School Board"
"82","Islands Consolidated School","Tri-County Regional School Board"
"83","Lockeport Regional High School","Tri-County Regional School Board"
"84","St. Mary's Bay Academy","Tri-County Regional School Board"
"85","Yarmouth Consolidated Memorial High School","Tri-County Regional School Board"
